<?xml version="1.0" encoding="utf-8"?>
<!-- Generator: Adobe Illustrator 23.0.3, SVG Export Plug-In . SVG Version: 6.00 Build 0)  -->
<svg version="1.1" id="Layer_1" xmlns="http://www.w3.org/2000/svg" xmlns:xlink="http://www.w3.org/1999/xlink" x="0px" y="0px"
	 viewBox="0 0 23.5 22.7" style="enable-background:new 0 0 23.5 22.7;" xml:space="preserve">
<style type="text/css">
	.st0{clip-path:url(#SVGID_2_);fill:none;stroke:#80276C;stroke-width:0.96;stroke-linejoin:round;stroke-miterlimit:10;}
</style>
<g>
	<g>
		<defs>
			<rect id="SVGID_1_" x="0.2" y="0.1" width="23" height="22.6"/>
		</defs>
		<clipPath id="SVGID_2_">
			<use xlink:href="#SVGID_1_"  style="overflow:visible;"/>
		</clipPath>
		<path class="st0" d="M20.8,16.9v2.4h-2.4 M17.5,15.9l3.4,3.4 M20.8,6.3V3.9h-2.4 M17.5,7.3l3.4-3.4 M20.8,13.5l1.9-1.9l-1.9-1.9
			 M22.8,11.6H18 M2.6,16.9v2.4H5 M6,15.9l-3.4,3.4 M2.6,6.3V3.9H5 M6,7.3L2.6,3.9 M2.6,13.5l-1.9-1.9l1.9-1.9 M0.7,11.6h4.8
			 M11.7,15v7.7 M9.3,10.2v12.5 M14.1,22.7V10.2 M11.7,5.4c1.1,0,1.9-0.8,1.9-1.9v-1c0-1.1-0.8-1.9-1.9-1.9S9.8,1.4,9.8,2.5v1
			C9.8,4.6,10.6,5.4,11.7,5.4z M14.1,15.5c1,0,1.9-1,1.9-1.9V9.2c0-1.6-2.6-2.4-4.3-2.4S7.4,7.6,7.4,9.2v4.3c0,0.9,0.9,1.9,1.9,1.9"
			/>
	</g>
</g>
</svg>
