<?xml version="1.0" encoding="utf-8"?>
<!-- Generator: Adobe Illustrator 23.0.0, SVG Export Plug-In . SVG Version: 6.00 Build 0)  -->
<svg version="1.1" id="Layer_1" xmlns="http://www.w3.org/2000/svg" xmlns:xlink="http://www.w3.org/1999/xlink" x="0px" y="0px"
	 viewBox="0 0 338.01 27.05" style="enable-background:new 0 0 338.01 27.05;" xml:space="preserve">
<style type="text/css">
	.st0{fill:#202221;}
	.st1{fill:#80276C;}
</style>
<g>
	<g>
		<path class="st0" d="M17.7,22.2c-1.2,0.43-1.86,0.57-2.61,0.57c-2.02,0-3.53-0.8-4.48-1.74c-1.13-1.13-1.75-2.71-1.75-4.22
			c0-1.65,0.71-3.22,1.75-4.28c1.03-1.04,2.57-1.81,4.38-1.81c0.56,0,1.46,0.09,2.71,0.59v3.6c-0.97-1.2-2.12-1.27-2.62-1.27
			c-0.87,0-1.53,0.26-2.08,0.76c-0.71,0.66-1.01,1.56-1.01,2.38c0,0.8,0.33,1.69,0.94,2.26c0.5,0.47,1.3,0.8,2.16,0.8
			c0.45,0,1.56-0.05,2.62-1.22V22.2z"/>
		<path class="st0" d="M26.91,10.92c0.87,0,1.98,0.14,2.83,1.03c0.66,0.68,0.99,1.69,0.99,2.61c0,0.99-0.35,1.86-0.92,2.42
			c-0.45,0.43-1.06,0.7-1.6,0.8l3.63,4.75h-3.74l-2.88-4.45v4.45h-3.01V10.92H26.91z M25.22,16.12h0.57c0.45,0,1.09-0.12,1.46-0.47
			c0.23-0.23,0.38-0.61,0.38-0.97c0-0.35-0.14-0.73-0.4-0.97c-0.28-0.28-0.78-0.45-1.44-0.45h-0.57V16.12z"/>
		<path class="st0" d="M38.73,10.92v6.87c0,0.49,0.02,1.23,0.59,1.79c0.35,0.33,0.9,0.56,1.42,0.56s1.06-0.21,1.39-0.5
			c0.7-0.61,0.68-1.46,0.68-2.1v-6.6h3.01v6.66c0,1.22-0.05,2.49-1.3,3.75c-0.97,0.99-2.19,1.44-3.82,1.44
			c-1.83,0-3.13-0.63-3.84-1.39c-1.01-1.09-1.13-2.57-1.13-3.81v-6.66H38.73z"/>
		<path class="st0" d="M53.86,10.92v11.59h-3.01V10.92H53.86z"/>
		<path class="st0" d="M59.67,19.04c0.64,0.61,1.62,1.18,2.66,1.18c0.61,0,0.97-0.19,1.16-0.4c0.17-0.17,0.3-0.43,0.3-0.73
			c0-0.23-0.09-0.49-0.33-0.7c-0.3-0.26-0.75-0.38-1.5-0.61l-0.78-0.24c-0.49-0.16-1.2-0.42-1.67-0.94
			c-0.59-0.64-0.66-1.46-0.66-2.05c0-1.42,0.56-2.29,1.06-2.8c0.59-0.59,1.56-1.09,2.97-1.09c1.15,0,2.49,0.36,3.58,0.94l-1.2,2.35
			c-0.9-0.71-1.58-0.78-1.98-0.78c-0.3,0-0.7,0.07-0.99,0.35C62.12,13.68,62,13.88,62,14.14c0,0.21,0.03,0.37,0.16,0.52
			c0.09,0.1,0.29,0.31,1.01,0.52l0.92,0.28c0.73,0.23,1.5,0.49,2.1,1.15c0.59,0.63,0.75,1.27,0.75,2.07c0,1.06-0.26,2.09-1.09,2.92
			c-0.99,0.99-2.19,1.18-3.42,1.18c-0.73,0-1.43-0.07-2.28-0.38c-0.19-0.07-0.92-0.35-1.75-0.92L59.67,19.04z"/>
		<path class="st0" d="M78.02,13.48h-3.58v1.93h3.39v2.55h-3.39v2h3.58v2.55h-6.59V10.92h6.59V13.48z"/>
		<path class="st0" d="M89.96,19.04c0.64,0.61,1.62,1.18,2.66,1.18c0.61,0,0.97-0.19,1.16-0.4c0.17-0.17,0.3-0.43,0.3-0.73
			c0-0.23-0.09-0.49-0.33-0.7c-0.3-0.26-0.75-0.38-1.5-0.61l-0.78-0.24c-0.49-0.16-1.2-0.42-1.67-0.94
			c-0.59-0.64-0.66-1.46-0.66-2.05c0-1.42,0.56-2.29,1.06-2.8c0.59-0.59,1.56-1.09,2.97-1.09c1.15,0,2.49,0.36,3.58,0.94l-1.2,2.35
			c-0.9-0.71-1.58-0.78-1.98-0.78c-0.3,0-0.7,0.07-0.99,0.35c-0.17,0.17-0.29,0.37-0.29,0.63c0,0.21,0.03,0.37,0.16,0.52
			c0.09,0.1,0.29,0.31,1.01,0.52l0.92,0.28c0.73,0.23,1.5,0.49,2.1,1.15c0.59,0.63,0.75,1.27,0.75,2.07c0,1.06-0.26,2.09-1.09,2.92
			c-0.99,0.99-2.19,1.18-3.42,1.18c-0.73,0-1.43-0.07-2.28-0.38c-0.19-0.07-0.92-0.35-1.75-0.92L89.96,19.04z"/>
		<path class="st0" d="M104.73,15.25h4.34v-4.33h3.02v11.59h-3.02v-4.69h-4.34v4.69h-3.01V10.92h3.01V15.25z"/>
		<path class="st0" d="M120.15,10.92v11.59h-3.01V10.92H120.15z"/>
		<path class="st0" d="M128.19,18.67v3.84h-3.01V10.92h4.8c1.01,0,2.05,0.19,2.94,1.04c0.9,0.87,1.08,1.84,1.08,2.82
			c0,0.92-0.12,2-1.03,2.89c-0.9,0.89-1.98,1.01-2.89,1.01H128.19z M128.19,16.24h1.01c0.31,0,0.9-0.03,1.27-0.36
			c0.37-0.31,0.38-0.78,0.38-1.06c0-0.31-0.04-0.73-0.35-1.04c-0.35-0.37-0.9-0.42-1.29-0.42h-1.03V16.24z"/>
		<path class="st0" d="M145.97,10.92v11.59h-0.76V10.92H145.97z"/>
		<path class="st0" d="M151.71,22.51V10.8l9.73,10.18V10.92h0.76v11.89l-9.73-10.18v9.89H151.71z"/>
		<path class="st0" d="M170.39,11.62v10.9h-0.76v-10.9h-3.01v-0.7h6.78v0.7H170.39z"/>
		<path class="st0" d="M183.37,11.62h-4.8v4.21h4.69v0.7h-4.69v5.3h4.8v0.7h-5.56V10.92h5.56V11.62z"/>
		<path class="st0" d="M193.35,22.51l-3.75-5.47h-0.35v5.47h-0.76V10.92h1.67c0.89,0,1.69,0.07,2.45,0.59
			c0.9,0.63,1.2,1.58,1.2,2.49c0,1.15-0.5,2.33-1.95,2.82c-0.61,0.21-1.16,0.23-1.42,0.23l3.79,5.47H193.35z M189.25,16.34h1.11
			c1.65,0,2.64-0.87,2.64-2.36c0-1.17-0.57-1.77-1.03-2.02c-0.49-0.28-1.32-0.35-1.77-0.35h-0.96V16.34z"/>
		<path class="st0" d="M199.98,10.92v11.59h-0.76V10.92H199.98z"/>
		<path class="st0" d="M217.12,16.74c0,3.34-2.62,5.96-6.01,5.96c-3.41,0-6.01-2.63-6.01-5.96s2.62-5.98,6.01-5.98
			C214.5,10.76,217.12,13.41,217.12,16.74z M216.32,16.74c0-2.97-2.22-5.28-5.21-5.28s-5.21,2.31-5.21,5.28
			c0,2.96,2.22,5.27,5.21,5.27S216.32,19.7,216.32,16.74z"/>
		<path class="st0" d="M227.1,22.51l-3.75-5.47h-0.35v5.47h-0.76V10.92h1.67c0.89,0,1.69,0.07,2.45,0.59c0.9,0.63,1.2,1.58,1.2,2.49
			c0,1.15-0.5,2.33-1.95,2.82c-0.61,0.21-1.16,0.23-1.42,0.23l3.79,5.47H227.1z M222.99,16.34h1.11c1.65,0,2.64-0.87,2.64-2.36
			c0-1.17-0.57-1.77-1.03-2.02c-0.49-0.28-1.32-0.35-1.77-0.35h-0.96V16.34z"/>
		<path class="st0" d="M238.25,12.89c-0.71-1.39-1.96-1.43-2.28-1.43c-1.37,0-2.16,0.99-2.16,2.16c0,1.25,0.87,1.67,2.03,2.24
			c1.15,0.56,1.72,0.8,2.31,1.22c0.5,0.35,1.23,0.96,1.23,2.24c0,1.95-1.63,3.39-3.62,3.39c-1.5,0-2.26-0.71-2.69-1.22
			c-0.45-0.52-0.64-0.97-0.75-1.27l0.66-0.31c0.16,0.45,0.45,0.9,0.63,1.11c0.52,0.66,1.37,0.99,2.17,0.99c1.56,0,2.8-1.15,2.8-2.68
			c0-0.63-0.24-1.29-1.13-1.83c-0.33-0.19-1.01-0.54-1.96-1.01c-1.15-0.56-1.72-0.87-2.12-1.53c-0.26-0.43-0.37-0.87-0.37-1.32
			c0-1.34,0.9-2.89,2.97-2.89c1.17,0,2.22,0.56,2.82,1.65L238.25,12.89z"/>
		<path class="st0" d="M253.6,9.48h0.7v17.38h-0.7V9.48z"/>
		<path class="st1" d="M275.06,12.14h-4.73v3.44h4.59v1.22h-4.59v4.5h4.73v1.22h-6.01V10.92h6.01V12.14z"/>
		<path class="st1" d="M281.32,18.03c0,0.97,0,2.03,0.92,2.82c0.47,0.4,1.27,0.66,1.91,0.66c0.64,0,1.44-0.26,1.91-0.66
			c0.92-0.78,0.92-1.84,0.92-2.82v-7.11h1.29v7.46c0,0.97-0.1,1.91-0.73,2.78c-0.7,0.96-1.91,1.56-3.39,1.56
			c-1.48,0-2.69-0.61-3.39-1.56c-0.63-0.87-0.73-1.81-0.73-2.78v-7.46h1.29V18.03z"/>
		<path class="st1" d="M295.72,10.92c0.78,0,1.95,0.05,2.82,0.64c0.68,0.45,1.27,1.34,1.27,2.57c0,1.77-1.16,3.08-2.92,3.2
			l3.68,5.18h-1.56l-3.53-5.08h-0.33v5.08h-1.29V10.92H295.72z M295.15,16.29h0.82c1.6,0,2.55-0.76,2.55-2.12
			c0-0.64-0.19-1.29-0.92-1.7c-0.52-0.29-1.11-0.33-1.67-0.33h-0.78V16.29z"/>
		<path class="st1" d="M304.57,16.73c0-3.46,2.69-6,6.03-6s6.03,2.54,6.03,6c0,3.44-2.68,6-6.03,6
			C307.25,22.72,304.57,20.17,304.57,16.73z M305.89,16.73c0,2.66,2.1,4.78,4.71,4.78c2.61,0,4.71-2.12,4.71-4.78
			s-2.1-4.78-4.71-4.78C307.99,11.95,305.89,14.07,305.89,16.73z"/>
		<path class="st1" d="M323.71,10.92c1.16,0,2.14,0.14,2.92,0.82c0.85,0.73,1.06,1.75,1.06,2.49c0,1.63-1.03,3.25-3.67,3.25h-1.13
			v5.04h-1.29V10.92H323.71z M322.89,16.26h1.06c1.53,0,2.45-0.76,2.45-2.1c0-1.84-1.72-2.02-2.55-2.02h-0.96V16.26z"/>
		<path class="st1" d="M338.15,12.14h-4.73v3.44h4.59v1.22h-4.59v4.5h4.73v1.22h-6.01V10.92h6.01V12.14z"/>
	</g>
</g>
<polygon class="st1" points="9.92,0 2.59,0 0,0 0,2.56 0,9.89 2.85,12.74 2.85,2.85 12.77,2.85 "/>
</svg>
