<?xml version="1.0" encoding="utf-8"?>
<!-- Generator: Adobe Illustrator 23.0.1, SVG Export Plug-In . SVG Version: 6.00 Build 0)  -->
<svg version="1.1" id="Layer_1" xmlns="http://www.w3.org/2000/svg" xmlns:xlink="http://www.w3.org/1999/xlink" x="0px" y="0px"
	 viewBox="0 0 387 267" style="enable-background:new 0 0 387 267;" xml:space="preserve">
<style type="text/css">
	.st0{fill:#FBB03B;}
	.st1{fill:url(#SVGID_1_);}
	.st2{fill:#666666;}
	.st3{fill:#999999;}
	.st4{fill:#808080;}
	.st5{fill:url(#SVGID_2_);}
	.st6{fill:#4D4D4D;stroke:#4D4D4D;stroke-miterlimit:10;}
	.st7{fill:#999999;stroke:#999999;stroke-miterlimit:10;}
	.st8{fill:none;stroke:#FFFFFF;stroke-width:7;stroke-miterlimit:10;}
	.st9{clip-path:url(#SVGID_4_);fill:#B3B3B3;}
	.st10{clip-path:url(#SVGID_4_);fill:#B2B2B2;}
	.st11{clip-path:url(#SVGID_4_);fill:#B1B1B1;}
	.st12{clip-path:url(#SVGID_4_);fill:#B0B0B0;}
	.st13{clip-path:url(#SVGID_4_);fill:#AFAFAF;}
	.st14{clip-path:url(#SVGID_4_);fill:#AEAEAE;}
	.st15{clip-path:url(#SVGID_4_);fill:#ADADAD;}
	.st16{clip-path:url(#SVGID_4_);fill:#ACACAC;}
	.st17{clip-path:url(#SVGID_4_);fill:#ABABAB;}
	.st18{clip-path:url(#SVGID_4_);fill:#AAAAAA;}
	.st19{clip-path:url(#SVGID_4_);fill:#A9A9A9;}
	.st20{clip-path:url(#SVGID_4_);fill:#A8A8A8;}
	.st21{clip-path:url(#SVGID_4_);fill:#A7A7A7;}
	.st22{clip-path:url(#SVGID_4_);fill:#A6A6A6;}
	.st23{clip-path:url(#SVGID_4_);fill:#A5A5A5;}
	.st24{clip-path:url(#SVGID_4_);fill:#A4A4A4;}
	.st25{clip-path:url(#SVGID_4_);fill:#A3A3A3;}
	.st26{clip-path:url(#SVGID_4_);fill:#A2A2A2;}
	.st27{clip-path:url(#SVGID_4_);fill:#A1A1A1;}
	.st28{clip-path:url(#SVGID_4_);fill:#A0A0A0;}
	.st29{clip-path:url(#SVGID_4_);fill:#9F9F9F;}
	.st30{clip-path:url(#SVGID_4_);fill:#9E9E9E;}
	.st31{clip-path:url(#SVGID_4_);fill:#9D9D9D;}
	.st32{clip-path:url(#SVGID_4_);fill:#9C9C9C;}
	.st33{clip-path:url(#SVGID_4_);fill:#9B9B9B;}
	.st34{clip-path:url(#SVGID_4_);fill:#9A9A9A;}
	.st35{clip-path:url(#SVGID_4_);fill:#999999;}
	.st36{clip-path:url(#SVGID_4_);fill:#989898;}
	.st37{clip-path:url(#SVGID_4_);fill:#979797;}
	.st38{clip-path:url(#SVGID_4_);fill:#969696;}
	.st39{clip-path:url(#SVGID_4_);fill:#959595;}
	.st40{clip-path:url(#SVGID_4_);fill:#949494;}
	.st41{clip-path:url(#SVGID_4_);fill:#939393;}
	.st42{clip-path:url(#SVGID_4_);fill:#929292;}
	.st43{clip-path:url(#SVGID_4_);fill:#919191;}
	.st44{clip-path:url(#SVGID_4_);fill:#909090;}
	.st45{clip-path:url(#SVGID_4_);fill:#8F8F8F;}
	.st46{clip-path:url(#SVGID_4_);fill:#8E8E8E;}
	.st47{clip-path:url(#SVGID_4_);fill:#8D8D8D;}
	.st48{clip-path:url(#SVGID_4_);fill:#8C8C8C;}
	.st49{clip-path:url(#SVGID_4_);fill:#8B8B8B;}
	.st50{clip-path:url(#SVGID_4_);fill:#8A8A8A;}
	.st51{clip-path:url(#SVGID_4_);fill:#898989;}
	.st52{clip-path:url(#SVGID_4_);fill:#888888;}
	.st53{clip-path:url(#SVGID_4_);fill:#878787;}
	.st54{clip-path:url(#SVGID_4_);fill:#868686;}
	.st55{clip-path:url(#SVGID_4_);fill:#858585;}
	.st56{clip-path:url(#SVGID_4_);fill:#848484;}
	.st57{clip-path:url(#SVGID_4_);fill:#838383;}
	.st58{clip-path:url(#SVGID_4_);fill:#828282;}
	.st59{clip-path:url(#SVGID_4_);fill:#818181;}
	.st60{clip-path:url(#SVGID_4_);fill:#7F7F81;}
	.st61{clip-path:url(#SVGID_4_);fill:#7E7E80;}
	.st62{clip-path:url(#SVGID_4_);fill:#7D7D7F;}
	.st63{clip-path:url(#SVGID_4_);fill:#7C7C7E;}
	.st64{clip-path:url(#SVGID_4_);fill:#7B7B7D;}
	.st65{clip-path:url(#SVGID_4_);fill:#7A7A7C;}
	.st66{clip-path:url(#SVGID_4_);fill:#79797B;}
	.st67{clip-path:url(#SVGID_4_);fill:#78787A;}
	.st68{clip-path:url(#SVGID_4_);fill:#777779;}
	.st69{clip-path:url(#SVGID_4_);fill:#767678;}
	.st70{clip-path:url(#SVGID_4_);fill:#757577;}
	.st71{clip-path:url(#SVGID_4_);fill:#747476;}
	.st72{clip-path:url(#SVGID_4_);fill:#737375;}
	.st73{clip-path:url(#SVGID_4_);fill:#727274;}
	.st74{clip-path:url(#SVGID_4_);fill:#717173;}
	.st75{clip-path:url(#SVGID_4_);fill:#707072;}
	.st76{clip-path:url(#SVGID_4_);fill:#6F6F71;}
	.st77{clip-path:url(#SVGID_4_);fill:#6E6E70;}
	.st78{clip-path:url(#SVGID_4_);fill:#6D6D6F;}
	.st79{clip-path:url(#SVGID_4_);fill:#6C6C6E;}
	.st80{clip-path:url(#SVGID_4_);fill:#6B6B6D;}
	.st81{clip-path:url(#SVGID_4_);fill:#6A6A6C;}
	.st82{clip-path:url(#SVGID_4_);fill:#69696B;}
	.st83{clip-path:url(#SVGID_4_);fill:#68686A;}
	.st84{clip-path:url(#SVGID_4_);fill:#676769;}
	.st85{clip-path:url(#SVGID_4_);fill:#666668;}
	.st86{clip-path:url(#SVGID_4_);fill:#656567;}
	.st87{clip-path:url(#SVGID_4_);fill:#646466;}
	.st88{clip-path:url(#SVGID_4_);fill:#636365;}
	.st89{clip-path:url(#SVGID_4_);fill:#626264;}
	.st90{clip-path:url(#SVGID_4_);fill:#616163;}
	.st91{clip-path:url(#SVGID_4_);fill:#606062;}
	.st92{clip-path:url(#SVGID_4_);fill:#5F5F61;}
	.st93{clip-path:url(#SVGID_4_);fill:#5E5E60;}
	.st94{clip-path:url(#SVGID_4_);fill:#5D5D5F;}
	.st95{clip-path:url(#SVGID_4_);fill:#5C5C5E;}
	.st96{clip-path:url(#SVGID_4_);fill:#5B5B5D;}
	.st97{clip-path:url(#SVGID_4_);fill:#5A5A5C;}
	.st98{clip-path:url(#SVGID_4_);fill:#59595B;}
	.st99{clip-path:url(#SVGID_4_);fill:#58585A;}
	.st100{clip-path:url(#SVGID_4_);fill:#575759;}
	.st101{clip-path:url(#SVGID_4_);fill:#565658;}
	.st102{clip-path:url(#SVGID_4_);fill:#555557;}
	.st103{clip-path:url(#SVGID_4_);fill:#545456;}
	.st104{clip-path:url(#SVGID_4_);fill:#535355;}
	.st105{clip-path:url(#SVGID_4_);fill:#525254;}
	.st106{clip-path:url(#SVGID_4_);fill:#515153;}
	.st107{clip-path:url(#SVGID_4_);fill:#505052;}
	.st108{clip-path:url(#SVGID_4_);fill:#4F4F51;}
	.st109{clip-path:url(#SVGID_4_);fill:#4E4E50;}
	.st110{clip-path:url(#SVGID_4_);fill:#4D4D4F;}
	.st111{clip-path:url(#SVGID_6_);fill:#808080;}
	.st112{clip-path:url(#SVGID_6_);fill:#818181;}
	.st113{clip-path:url(#SVGID_6_);fill:#828282;}
	.st114{clip-path:url(#SVGID_6_);fill:#838383;}
	.st115{clip-path:url(#SVGID_6_);fill:#848484;}
	.st116{clip-path:url(#SVGID_6_);fill:#858585;}
	.st117{clip-path:url(#SVGID_6_);fill:#868686;}
	.st118{clip-path:url(#SVGID_6_);fill:#878787;}
	.st119{clip-path:url(#SVGID_6_);fill:#888888;}
	.st120{clip-path:url(#SVGID_6_);fill:#898989;}
	.st121{clip-path:url(#SVGID_6_);fill:#8A8A8A;}
	.st122{clip-path:url(#SVGID_6_);fill:#8B8B8B;}
	.st123{clip-path:url(#SVGID_6_);fill:#8C8C8C;}
	.st124{clip-path:url(#SVGID_6_);fill:#8D8D8D;}
	.st125{clip-path:url(#SVGID_6_);fill:#8E8E8E;}
	.st126{clip-path:url(#SVGID_6_);fill:#8F8F8F;}
	.st127{clip-path:url(#SVGID_6_);fill:#909090;}
	.st128{clip-path:url(#SVGID_6_);fill:#919191;}
	.st129{clip-path:url(#SVGID_6_);fill:#929292;}
	.st130{clip-path:url(#SVGID_6_);fill:#939393;}
	.st131{clip-path:url(#SVGID_6_);fill:#949494;}
	.st132{clip-path:url(#SVGID_6_);fill:#959595;}
	.st133{clip-path:url(#SVGID_6_);fill:#969696;}
	.st134{clip-path:url(#SVGID_6_);fill:#979797;}
	.st135{clip-path:url(#SVGID_6_);fill:#989898;}
	.st136{clip-path:url(#SVGID_6_);fill:#999999;}
	.st137{clip-path:url(#SVGID_6_);fill:#9A9A9A;}
	.st138{clip-path:url(#SVGID_6_);fill:#9B9B9B;}
	.st139{clip-path:url(#SVGID_6_);fill:#9C9C9C;}
	.st140{clip-path:url(#SVGID_6_);fill:#9D9D9D;}
	.st141{clip-path:url(#SVGID_6_);fill:#9E9E9E;}
	.st142{clip-path:url(#SVGID_6_);fill:#9F9F9F;}
	.st143{clip-path:url(#SVGID_6_);fill:#A0A0A0;}
	.st144{clip-path:url(#SVGID_6_);fill:#A1A1A1;}
	.st145{clip-path:url(#SVGID_6_);fill:#A2A2A2;}
	.st146{clip-path:url(#SVGID_6_);fill:#A3A3A3;}
	.st147{clip-path:url(#SVGID_6_);fill:#A4A4A4;}
	.st148{clip-path:url(#SVGID_6_);fill:#A5A5A5;}
	.st149{clip-path:url(#SVGID_6_);fill:#A6A6A6;}
	.st150{clip-path:url(#SVGID_6_);fill:#A7A7A7;}
	.st151{clip-path:url(#SVGID_6_);fill:#A8A8A8;}
	.st152{clip-path:url(#SVGID_6_);fill:#A9A9A9;}
	.st153{clip-path:url(#SVGID_6_);fill:#AAAAAA;}
	.st154{clip-path:url(#SVGID_6_);fill:#ABABAB;}
	.st155{clip-path:url(#SVGID_6_);fill:#ACACAC;}
	.st156{clip-path:url(#SVGID_6_);fill:#ADADAD;}
	.st157{clip-path:url(#SVGID_6_);fill:#AEAEAE;}
	.st158{clip-path:url(#SVGID_6_);fill:#AFAFAF;}
	.st159{clip-path:url(#SVGID_6_);fill:#B0B0B0;}
	.st160{clip-path:url(#SVGID_6_);fill:#B1B1B1;}
	.st161{clip-path:url(#SVGID_6_);fill:#B2B2B2;}
	.st162{clip-path:url(#SVGID_6_);fill:#B2B3B4;}
	.st163{clip-path:url(#SVGID_6_);fill:#B3B4B5;}
	.st164{clip-path:url(#SVGID_6_);fill:#B4B5B6;}
	.st165{clip-path:url(#SVGID_6_);fill:#B5B6B7;}
	.st166{clip-path:url(#SVGID_6_);fill:#B6B7B8;}
	.st167{clip-path:url(#SVGID_6_);fill:#B7B8B9;}
	.st168{clip-path:url(#SVGID_6_);fill:#B8B9BA;}
	.st169{clip-path:url(#SVGID_6_);fill:#B9BABB;}
	.st170{clip-path:url(#SVGID_6_);fill:#BABBBC;}
	.st171{clip-path:url(#SVGID_6_);fill:#BBBCBD;}
	.st172{clip-path:url(#SVGID_6_);fill:#BCBDBE;}
	.st173{clip-path:url(#SVGID_6_);fill:#BDBEBF;}
	.st174{clip-path:url(#SVGID_6_);fill:#BEBFC0;}
	.st175{clip-path:url(#SVGID_6_);fill:#BFC0C1;}
	.st176{clip-path:url(#SVGID_6_);fill:#C0C1C2;}
	.st177{clip-path:url(#SVGID_6_);fill:#C1C2C3;}
	.st178{clip-path:url(#SVGID_6_);fill:#C2C3C4;}
	.st179{clip-path:url(#SVGID_6_);fill:#C3C4C5;}
	.st180{clip-path:url(#SVGID_6_);fill:#C4C5C6;}
	.st181{clip-path:url(#SVGID_6_);fill:#C5C6C7;}
	.st182{clip-path:url(#SVGID_6_);fill:#C6C7C8;}
	.st183{clip-path:url(#SVGID_6_);fill:#C7C8C9;}
	.st184{clip-path:url(#SVGID_6_);fill:#C8C9CA;}
	.st185{clip-path:url(#SVGID_6_);fill:#C9CACB;}
	.st186{clip-path:url(#SVGID_6_);fill:#CACBCC;}
	.st187{clip-path:url(#SVGID_6_);fill:#CBCCCD;}
	.st188{clip-path:url(#SVGID_6_);fill:#CCCDCE;}
	.st189{clip-path:url(#SVGID_6_);fill:#CDCECF;}
	.st190{clip-path:url(#SVGID_6_);fill:#CECFD0;}
	.st191{clip-path:url(#SVGID_6_);fill:#CFD0D1;}
	.st192{clip-path:url(#SVGID_6_);fill:#D0D1D2;}
	.st193{clip-path:url(#SVGID_6_);fill:#D1D2D3;}
	.st194{clip-path:url(#SVGID_6_);fill:#D2D3D4;}
	.st195{clip-path:url(#SVGID_6_);fill:#D3D4D5;}
	.st196{clip-path:url(#SVGID_6_);fill:#D4D5D6;}
	.st197{clip-path:url(#SVGID_6_);fill:#D5D6D7;}
	.st198{clip-path:url(#SVGID_6_);fill:#D6D7D8;}
	.st199{clip-path:url(#SVGID_6_);fill:#D7D8D9;}
	.st200{clip-path:url(#SVGID_6_);fill:#D8D9DA;}
	.st201{clip-path:url(#SVGID_6_);fill:#D9DADB;}
	.st202{clip-path:url(#SVGID_6_);fill:#DADBDC;}
	.st203{clip-path:url(#SVGID_6_);fill:#DBDCDD;}
	.st204{clip-path:url(#SVGID_6_);fill:#DCDDDE;}
	.st205{clip-path:url(#SVGID_6_);fill:#DDDEDF;}
	.st206{clip-path:url(#SVGID_6_);fill:#DEDFE0;}
	.st207{clip-path:url(#SVGID_6_);fill:#DFE0E1;}
	.st208{clip-path:url(#SVGID_6_);fill:#E0E1E2;}
	.st209{clip-path:url(#SVGID_6_);fill:#E1E2E3;}
	.st210{clip-path:url(#SVGID_6_);fill:#E2E3E4;}
	.st211{clip-path:url(#SVGID_6_);fill:#E3E4E5;}
	.st212{clip-path:url(#SVGID_6_);fill:#E4E5E6;}
</style>
<rect x="-61" y="461" class="st0" width="510" height="353"/>
<g>
	<radialGradient id="SVGID_1_" cx="193.3081" cy="598.1389" r="150.5404" gradientUnits="userSpaceOnUse">
		<stop  offset="0" style="stop-color:#262626"/>
		<stop  offset="1" style="stop-color:#B3B3B3"/>
	</radialGradient>
	<path class="st1" d="M93.8,692.28H19.47c-9.45,0-17.12-7.66-17.12-17.12l0,0c0-9.45,7.66-17.12,17.12-17.12H93.8
		c17.58,0,34.32-8.47,47.15-23.85l78.43-94.03c19.17-22.98,45.93-36.16,73.44-36.16h74.32c9.45,0,17.12,7.66,17.12,17.12l0,0
		c0,9.45-7.66,17.12-17.12,17.12h-74.32c-17.58,0-34.32,8.47-47.15,23.85l-78.43,94.03C148.07,679.1,121.3,692.28,93.8,692.28z"/>
</g>
<g>
	<path class="st2" d="M367.14,615.26h-94.37c-9.45,0-17.12-7.66-17.12-17.12v0c0-9.45,7.66-17.12,17.12-17.12h94.37
		c9.45,0,17.12,7.66,17.12,17.12v0C384.26,607.59,376.6,615.26,367.14,615.26z"/>
</g>
<g>
	<path class="st3" d="M384.26,675.16c0,9.45-7.66,17.12-17.12,17.12h-74.32c-27.51,0-54.28-13.18-73.44-36.16l-78.43-94.03
		c-12.83-15.38-29.58-23.85-47.15-23.85H19.47c-9.45,0-17.12-7.66-17.12-17.12l0,0c0-9.45,7.66-17.12,17.12-17.12H93.8
		c27.51,0,54.28,13.18,73.44,36.16l78.43,94.03c12.83,15.38,29.58,23.85,47.15,23.85h74.32
		C376.6,658.05,384.26,665.71,384.26,675.16L384.26,675.16z"/>
</g>
<g>
	<path class="st4" d="M114.28,615.26H19.91c-9.45,0-17.12-7.66-17.12-17.12v0c0-9.45,7.66-17.12,17.12-17.12h94.37
		c9.45,0,17.12,7.66,17.12,17.12v0C131.4,607.59,123.74,615.26,114.28,615.26z"/>
</g>
<g>
	<radialGradient id="SVGID_2_" cx="193.3081" cy="598.1389" r="150.5404" gradientUnits="userSpaceOnUse">
		<stop  offset="0" style="stop-color:#E3E3E3"/>
		<stop  offset="1" style="stop-color:#808080"/>
	</radialGradient>
	<path class="st5" d="M93.8,692.28H19.47c-9.45,0-17.12-7.66-17.12-17.12l0,0c0-9.45,7.66-17.12,17.12-17.12H93.8
		c17.58,0,34.32-8.47,47.15-23.85l78.43-94.03c19.17-22.98,45.93-36.16,73.44-36.16h74.32c9.45,0,17.12,7.66,17.12,17.12l0,0
		c0,9.45-7.66,17.12-17.12,17.12h-74.32c-17.58,0-34.32,8.47-47.15,23.85l-78.43,94.03C148.07,679.1,121.3,692.28,93.8,692.28z"/>
</g>
<g>
	<path class="st4" d="M367.14,615.26h-94.37c-9.45,0-17.12-7.66-17.12-17.12v0c0-9.45,7.66-17.12,17.12-17.12h94.37
		c9.45,0,17.12,7.66,17.12,17.12v0C384.26,607.59,376.6,615.26,367.14,615.26z"/>
</g>
<g>
	<path class="st4" d="M384.26,675.16c0,9.45-7.66,17.12-17.12,17.12h-74.32c-27.51,0-54.28-13.18-73.44-36.16l-78.43-94.03
		c-12.83-15.38-29.58-23.85-47.15-23.85H19.47c-9.45,0-17.12-7.66-17.12-17.12l0,0c0-9.45,7.66-17.12,17.12-17.12H93.8
		c27.51,0,54.28,13.18,73.44,36.16l78.43,94.03c12.83,15.38,29.58,23.85,47.15,23.85h74.32
		C376.6,658.05,384.26,665.71,384.26,675.16L384.26,675.16z"/>
</g>
<g>
	<path class="st6" d="M5.8,767.58c-0.37-0.37-0.55-0.83-0.55-1.37v-25.05c0-0.57,0.18-1.03,0.55-1.39s0.83-0.54,1.37-0.54h16.72
		c0.57,0,1.02,0.17,1.37,0.5c0.35,0.33,0.52,0.77,0.52,1.31c0,0.52-0.17,0.94-0.52,1.26c-0.35,0.32-0.8,0.48-1.37,0.48H9.09v8.99
		h10.62c0.54,0,0.99,0.17,1.35,0.5c0.36,0.33,0.54,0.76,0.54,1.28c0,0.52-0.18,0.94-0.54,1.28c-0.36,0.33-0.81,0.5-1.35,0.5H9.09
		v9.25h14.8c0.57,0,1.02,0.16,1.37,0.48c0.35,0.32,0.52,0.74,0.52,1.26c0,0.54-0.17,0.98-0.52,1.31c-0.35,0.33-0.8,0.5-1.37,0.5
		H7.17C6.63,768.13,6.17,767.95,5.8,767.58z"/>
	<path class="st6" d="M31.68,767.58c-0.36-0.37-0.54-0.83-0.54-1.37v-25.05c0-0.54,0.18-1,0.55-1.37s0.81-0.56,1.33-0.56
		c0.54,0,1,0.19,1.37,0.56s0.56,0.83,0.56,1.37v23.13h13.39c0.54,0,1,0.18,1.37,0.55s0.56,0.83,0.56,1.37c0,0.54-0.19,1-0.56,1.37
		s-0.83,0.55-1.37,0.55H33.03C32.49,768.13,32.04,767.95,31.68,767.58z"/>
	<path class="st6" d="M55.45,767.58c-0.37-0.37-0.55-0.83-0.55-1.37v-25.05c0-0.57,0.18-1.03,0.55-1.39s0.83-0.54,1.37-0.54
		c0.57,0,1.03,0.18,1.39,0.54c0.36,0.36,0.54,0.82,0.54,1.39v25.05c0,0.54-0.18,1-0.54,1.37c-0.36,0.37-0.82,0.55-1.39,0.55
		C56.28,768.13,55.82,767.95,55.45,767.58z"/>
	<path class="st6" d="M85.85,739.73c0.33,0.33,0.5,0.76,0.5,1.28c0,0.52-0.17,0.94-0.5,1.28s-0.76,0.5-1.28,0.5h-7.96v23.42
		c0,0.54-0.19,1-0.55,1.37c-0.37,0.37-0.83,0.55-1.37,0.55c-0.54,0-1-0.18-1.37-0.55s-0.55-0.83-0.55-1.37v-23.42h-7.99
		c-0.52,0-0.94-0.17-1.28-0.5s-0.5-0.76-0.5-1.28c0-0.52,0.17-0.94,0.5-1.28s0.76-0.5,1.28-0.5h19.79
		C85.09,739.23,85.52,739.4,85.85,739.73z"/>
	<path class="st6" d="M91.16,767.58c-0.37-0.37-0.55-0.83-0.55-1.37v-25.05c0-0.57,0.18-1.03,0.55-1.39s0.83-0.54,1.37-0.54h16.72
		c0.57,0,1.02,0.17,1.37,0.5c0.35,0.33,0.52,0.77,0.52,1.31c0,0.52-0.17,0.94-0.52,1.26c-0.35,0.32-0.8,0.48-1.37,0.48h-14.8v8.99
		h10.62c0.54,0,0.99,0.17,1.35,0.5c0.36,0.33,0.54,0.76,0.54,1.28c0,0.52-0.18,0.94-0.54,1.28c-0.36,0.33-0.81,0.5-1.35,0.5H94.45
		v9.25h14.8c0.57,0,1.02,0.16,1.37,0.48c0.35,0.32,0.52,0.74,0.52,1.26c0,0.54-0.17,0.98-0.52,1.31c-0.35,0.33-0.8,0.5-1.37,0.5
		H92.53C91.99,768.13,91.53,767.95,91.16,767.58z"/>
	<path class="st7" d="M127.9,767.58c-0.37-0.37-0.55-0.83-0.55-1.37v-25.05c0-0.57,0.18-1.03,0.55-1.39s0.83-0.54,1.37-0.54h16.72
		c0.57,0,1.02,0.17,1.37,0.5c0.35,0.33,0.52,0.77,0.52,1.31c0,0.52-0.17,0.94-0.52,1.26c-0.35,0.32-0.8,0.48-1.37,0.48h-14.8v8.99
		h10.62c0.54,0,0.99,0.17,1.35,0.5c0.36,0.33,0.54,0.76,0.54,1.28c0,0.52-0.18,0.94-0.54,1.28c-0.36,0.33-0.81,0.5-1.35,0.5h-10.62
		v9.25h14.8c0.57,0,1.02,0.16,1.37,0.48c0.35,0.32,0.52,0.74,0.52,1.26c0,0.54-0.17,0.98-0.52,1.31c-0.35,0.33-0.8,0.5-1.37,0.5
		h-16.72C128.73,768.13,128.27,767.95,127.9,767.58z"/>
	<path class="st7" d="M173.85,765.02c0.27,0.4,0.41,0.81,0.41,1.26c0,0.49-0.16,0.92-0.48,1.29c-0.32,0.37-0.75,0.55-1.29,0.55
		c-0.62,0-1.11-0.23-1.48-0.7l-8.03-11.14l-8.51,11.29c-0.37,0.37-0.81,0.55-1.33,0.55c-0.54,0-0.97-0.17-1.28-0.52
		c-0.31-0.35-0.46-0.76-0.46-1.26c0-0.49,0.15-0.94,0.44-1.33l8.62-11.47l-8.14-11.29c-0.25-0.32-0.37-0.7-0.37-1.15
		c0-0.52,0.16-0.96,0.48-1.33c0.32-0.37,0.75-0.56,1.29-0.56c0.64,0,1.1,0.19,1.37,0.56l7.96,11.03l8.29-11.03
		c0.35-0.37,0.8-0.56,1.37-0.56c0.52,0,0.93,0.17,1.24,0.52c0.31,0.35,0.46,0.76,0.46,1.26c0,0.42-0.14,0.84-0.41,1.26l-8.44,11.25
		L173.85,765.02z"/>
	<path class="st7" d="M180.29,767.58c-0.37-0.37-0.55-0.83-0.55-1.37v-25.05c0-0.57,0.18-1.03,0.55-1.39s0.83-0.54,1.37-0.54
		c0.57,0,1.03,0.18,1.39,0.54c0.36,0.36,0.54,0.82,0.54,1.39v10.62h17.17v-10.62c0-0.57,0.19-1.03,0.56-1.39
		c0.37-0.36,0.83-0.54,1.37-0.54s0.99,0.18,1.35,0.54s0.54,0.82,0.54,1.39v25.05c0,0.57-0.18,1.03-0.54,1.39s-0.81,0.54-1.35,0.54
		s-1-0.18-1.37-0.55c-0.37-0.37-0.56-0.83-0.56-1.37v-11.03h-17.17v11.03c0,0.54-0.18,1-0.54,1.37c-0.36,0.37-0.82,0.55-1.39,0.55
		C181.12,768.13,180.66,767.95,180.29,767.58z"/>
	<path class="st7" d="M212.52,767.58c-0.37-0.37-0.55-0.83-0.55-1.37v-25.05c0-0.57,0.18-1.03,0.55-1.39s0.83-0.54,1.37-0.54
		c0.57,0,1.03,0.18,1.39,0.54c0.36,0.36,0.54,0.82,0.54,1.39v25.05c0,0.54-0.18,1-0.54,1.37c-0.36,0.37-0.82,0.55-1.39,0.55
		C213.34,768.13,212.89,767.95,212.52,767.58z"/>
	<path class="st7" d="M223.76,767.58c-0.37-0.37-0.55-0.83-0.55-1.37v-25.05c0-0.57,0.18-1.03,0.55-1.39s0.83-0.54,1.37-0.54h8.84
		c1.65,0,3.12,0.33,4.4,0.98c1.28,0.65,2.29,1.57,3.02,2.74c0.73,1.17,1.09,2.5,1.09,3.98c0,1.21-0.33,2.29-0.98,3.26
		s-1.55,1.74-2.68,2.33c1.68,0.4,3,1.18,3.96,2.37c0.96,1.18,1.44,2.69,1.44,4.51c0,1.68-0.4,3.18-1.2,4.51
		c-0.8,1.33-1.92,2.37-3.37,3.11c-1.44,0.74-3.08,1.11-4.9,1.11h-9.62C224.59,768.13,224.13,767.95,223.76,767.58z M233.98,751.11
		c1.46,0,2.62-0.36,3.5-1.07c0.88-0.72,1.31-1.75,1.31-3.11c0-1.36-0.44-2.39-1.31-3.09c-0.88-0.7-2.04-1.05-3.5-1.05h-6.92v8.33
		H233.98z M234.75,764.58c1.73,0,3.12-0.45,4.18-1.35s1.59-2.18,1.59-3.83c0-1.53-0.52-2.7-1.57-3.51c-1.05-0.81-2.45-1.22-4.2-1.22
		h-7.7v9.92H234.75z"/>
	<path class="st7" d="M250.52,767.58c-0.37-0.37-0.55-0.83-0.55-1.37v-25.05c0-0.57,0.18-1.03,0.55-1.39s0.83-0.54,1.37-0.54
		c0.57,0,1.03,0.18,1.39,0.54c0.36,0.36,0.54,0.82,0.54,1.39v25.05c0,0.54-0.18,1-0.54,1.37c-0.36,0.37-0.82,0.55-1.39,0.55
		C251.34,768.13,250.89,767.95,250.52,767.58z"/>
	<path class="st7" d="M280.91,739.73c0.33,0.33,0.5,0.76,0.5,1.28c0,0.52-0.17,0.94-0.5,1.28s-0.76,0.5-1.28,0.5h-7.96v23.42
		c0,0.54-0.18,1-0.55,1.37s-0.83,0.55-1.37,0.55c-0.54,0-1-0.18-1.37-0.55s-0.55-0.83-0.55-1.37v-23.42h-7.99
		c-0.52,0-0.94-0.17-1.28-0.5s-0.5-0.76-0.5-1.28c0-0.52,0.17-0.94,0.5-1.28s0.76-0.5,1.28-0.5h19.79
		C280.15,739.23,280.58,739.4,280.91,739.73z"/>
	<path class="st7" d="M286.22,767.58c-0.37-0.37-0.55-0.83-0.55-1.37v-25.05c0-0.57,0.18-1.03,0.55-1.39s0.83-0.54,1.37-0.54
		c0.57,0,1.03,0.18,1.39,0.54c0.36,0.36,0.54,0.82,0.54,1.39v25.05c0,0.54-0.18,1-0.54,1.37c-0.36,0.37-0.82,0.55-1.39,0.55
		C287.05,768.13,286.59,767.95,286.22,767.58z"/>
	<path class="st7" d="M302.63,766.62c-2.23-1.26-3.96-3.02-5.2-5.27c-1.23-2.26-1.85-4.82-1.85-7.68s0.62-5.41,1.85-7.66
		c1.23-2.24,2.97-4,5.2-5.25s4.78-1.89,7.64-1.89c2.84,0,5.37,0.63,7.6,1.89s3.97,3.01,5.22,5.25c1.25,2.25,1.87,4.8,1.87,7.66
		s-0.62,5.42-1.87,7.68c-1.25,2.26-2.98,4.01-5.2,5.27c-2.22,1.26-4.76,1.89-7.62,1.89S304.86,767.87,302.63,766.62z M315.93,763.53
		c1.68-1,2.98-2.36,3.92-4.09c0.94-1.73,1.41-3.65,1.41-5.77s-0.47-4.04-1.41-5.77c-0.94-1.73-2.24-3.08-3.9-4.07
		s-3.56-1.48-5.68-1.48s-4.01,0.49-5.68,1.48s-2.97,2.34-3.9,4.07c-0.94,1.73-1.41,3.65-1.41,5.77s0.47,4.05,1.41,5.77
		c0.94,1.73,2.25,3.09,3.92,4.09c1.68,1,3.56,1.5,5.66,1.5S314.25,764.52,315.93,763.53z"/>
	<path class="st7" d="M331.52,767.6c-0.36-0.36-0.54-0.82-0.54-1.39v-25.05c0-0.57,0.18-1.03,0.54-1.39s0.81-0.54,1.35-0.54
		c0.27,0,0.54,0.07,0.81,0.2c0.27,0.14,0.49,0.3,0.67,0.5l16.13,21.46v-20.24c0-0.57,0.18-1.03,0.55-1.39s0.83-0.54,1.37-0.54
		c0.54,0,0.99,0.18,1.35,0.54c0.36,0.36,0.54,0.82,0.54,1.39v25.05c0,0.57-0.18,1.03-0.54,1.39c-0.36,0.36-0.81,0.54-1.35,0.54
		c-0.27,0-0.55-0.06-0.83-0.17c-0.28-0.11-0.5-0.28-0.65-0.5l-16.13-21.46v20.2c0,0.54-0.18,1-0.54,1.37
		c-0.36,0.37-0.82,0.55-1.39,0.55C332.33,768.13,331.88,767.95,331.52,767.6z"/>
	<path class="st7" d="M364.34,766.87c-1.96-1.08-3.31-2.5-4.05-4.25c-0.12-0.3-0.18-0.54-0.18-0.74c0-0.37,0.13-0.7,0.41-0.98
		c0.27-0.28,0.64-0.47,1.11-0.57c0.07-0.02,0.2-0.04,0.37-0.04c0.39,0,0.77,0.12,1.13,0.35s0.62,0.55,0.8,0.94
		c0.44,0.96,1.32,1.78,2.63,2.44s2.75,1,4.33,1c1.85,0,3.42-0.42,4.7-1.28c1.28-0.85,1.92-2.02,1.92-3.5c0-1.41-0.54-2.61-1.63-3.61
		c-1.09-1-2.74-1.61-4.96-1.83c-3.06-0.3-5.46-1.19-7.21-2.68c-1.75-1.49-2.63-3.36-2.63-5.61c0-1.58,0.45-2.94,1.35-4.09
		c0.9-1.15,2.13-2.02,3.7-2.63s3.32-0.91,5.27-0.91c2.12,0,3.91,0.43,5.37,1.3s2.69,2.1,3.7,3.7c0.3,0.47,0.44,0.91,0.44,1.33
		c0,0.54-0.25,0.99-0.74,1.33c-0.27,0.17-0.59,0.26-0.96,0.26s-0.72-0.09-1.04-0.28c-0.32-0.18-0.57-0.44-0.74-0.76
		c-0.67-1.11-1.5-1.96-2.5-2.54c-1-0.58-2.26-0.87-3.79-0.87c-1.88,0-3.39,0.36-4.55,1.09c-1.16,0.73-1.74,1.78-1.74,3.16
		c0,1.28,0.52,2.36,1.55,3.22c1.04,0.86,2.89,1.43,5.55,1.7c2.96,0.3,5.25,1.19,6.88,2.68c1.63,1.49,2.44,3.46,2.44,5.9
		c0,1.78-0.48,3.3-1.44,4.57c-0.96,1.27-2.24,2.22-3.83,2.85c-1.59,0.63-3.3,0.94-5.13,0.94
		C368.48,768.5,366.3,767.96,364.34,766.87z"/>
</g>
<line class="st8" x1="4" y1="715.5" x2="384" y2="715.5"/>
<g>
	<g>
		<g>
			<defs>
				<path id="SVGID_3_" d="M93.8,190.28H19.47c-9.45,0-17.12-7.66-17.12-17.12v0c0-9.45,7.66-17.12,17.12-17.12H93.8
					c17.58,0,34.32-8.47,47.15-23.85l78.43-94.03C238.55,15.18,265.31,2,292.82,2h74.32c9.45,0,17.12,7.66,17.12,17.12v0
					c0,9.45-7.66,17.12-17.12,17.12h-74.32c-17.58,0-34.32,8.47-47.15,23.85l-78.43,94.03C148.07,177.1,121.3,190.28,93.8,190.28z"
					/>
			</defs>
			<clipPath id="SVGID_4_">
				<use xlink:href="#SVGID_3_"  style="overflow:visible;"/>
			</clipPath>
			<rect x="2.36" y="2" class="st9" width="381.9" height="188.28"/>
			<path class="st9" d="M343.85,96.14c0,20.79-4.21,40.59-11.83,58.6c-3.81,9.01-8.47,17.56-13.88,25.57
				c-2.71,4-5.6,7.87-8.67,11.59v-0.62H77.14v0.62c-3.07-3.72-5.96-7.58-8.67-11.59c-5.41-8.01-10.07-16.57-13.88-25.57
				c-7.62-18.01-11.83-37.81-11.83-58.6s4.21-40.59,11.83-58.6c3.81-9.01,8.47-17.56,13.88-25.57c2.71-4,5.6-7.87,8.67-11.59V1
				h232.33V0.38c3.07,3.72,5.96,7.58,8.67,11.59c5.41,8.01,10.07,16.57,13.88,25.57C339.64,55.55,343.85,75.35,343.85,96.14z"/>
			<path class="st10" d="M342.37,96.14c0,20.58-4.17,40.19-11.71,58.02c-3.77,8.92-8.39,17.39-13.74,25.32
				c-2.68,3.97-5.54,7.79-8.58,11.48c-1.52,1.84-3.08,3.64-4.69,5.41v-5.09H82.97v5.09c-1.6-1.76-3.17-3.57-4.69-5.41
				c-3.04-3.68-5.9-7.51-8.58-11.48c-5.36-7.93-9.97-16.4-13.74-25.32c-7.54-17.83-11.71-37.44-11.71-58.02s4.17-40.19,11.71-58.02
				c3.77-8.92,8.39-17.39,13.74-25.32C72.38,8.83,75.24,5,78.28,1.32c1.52-1.84,3.08-3.64,4.69-5.41V1h220.68v-5.09
				c1.6,1.76,3.17,3.57,4.69,5.41c3.04,3.68,5.9,7.51,8.58,11.48c5.36,7.93,9.97,16.4,13.74,25.32
				C338.2,55.95,342.37,75.56,342.37,96.14z"/>
			<path class="st11" d="M340.9,96.14c0,20.38-4.13,39.79-11.6,57.45c-3.73,8.83-8.3,17.22-13.61,25.07
				c-2.65,3.93-5.49,7.72-8.5,11.36c-1.5,1.82-3.05,3.61-4.64,5.36v-4.1H84.06v4.1c-1.59-1.75-3.13-3.53-4.64-5.36
				c-3.01-3.64-5.84-7.44-8.5-11.36c-5.3-7.85-9.87-16.24-13.61-25.07c-7.47-17.66-11.6-37.07-11.6-57.45s4.13-39.79,11.6-57.45
				c3.73-8.83,8.3-17.22,13.61-25.07c2.65-3.93,5.49-7.72,8.5-11.36c1.5-1.82,3.05-3.61,4.64-5.36V1h218.5v-4.1
				c1.59,1.75,3.13,3.53,4.64,5.36c3.01,3.64,5.84,7.44,8.5,11.36c5.3,7.85,9.87,16.24,13.61,25.07
				C336.77,56.35,340.9,75.76,340.9,96.14z"/>
			<path class="st12" d="M339.42,96.14c0,20.17-4.09,39.39-11.48,56.87c-3.7,8.74-8.22,17.05-13.47,24.82
				c-2.63,3.89-5.43,7.64-8.41,11.25c-1.49,1.8-3.02,3.57-4.59,5.3v-3.1H85.15v3.1c-1.57-1.73-3.1-3.5-4.59-5.3
				c-2.98-3.61-5.79-7.36-8.41-11.25c-5.25-7.77-9.77-16.08-13.47-24.82c-7.39-17.48-11.48-36.7-11.48-56.87s4.09-39.39,11.48-56.87
				c3.7-8.74,8.22-17.05,13.47-24.82c2.63-3.89,5.43-7.64,8.41-11.25c1.49-1.8,3.02-3.57,4.59-5.3V1h216.31v-3.1
				c1.57,1.73,3.1,3.5,4.59,5.3c2.98,3.61,5.79,7.36,8.41,11.25c5.25,7.77,9.77,16.08,13.47,24.82
				C335.33,56.75,339.42,75.96,339.42,96.14z"/>
			<path class="st13" d="M337.94,96.14c0,19.97-4.05,39-11.37,56.3c-3.66,8.65-8.14,16.87-13.34,24.57
				c-2.6,3.85-5.38,7.56-8.33,11.13c-1.47,1.79-2.99,3.54-4.55,5.25v-2.11H86.25v2.11c-1.56-1.71-3.07-3.46-4.55-5.25
				c-2.95-3.57-5.73-7.29-8.33-11.13c-5.2-7.69-9.68-15.92-13.34-24.57c-7.32-17.3-11.37-36.33-11.37-56.3s4.05-39,11.37-56.3
				c3.66-8.65,8.14-16.87,13.34-24.57c2.6-3.85,5.38-7.56,8.33-11.13c1.47-1.79,2.99-3.54,4.55-5.25V1h214.13v-2.11
				c1.56,1.71,3.07,3.46,4.55,5.25c2.95,3.57,5.73,7.29,8.33,11.13c5.2,7.69,9.68,15.92,13.34,24.57
				C333.9,57.14,337.94,76.17,337.94,96.14z"/>
			<path class="st14" d="M336.47,96.14c0,39.53-16.02,75.32-41.93,101.23v-6.09H92.08v6.09c-25.91-25.91-41.93-61.7-41.93-101.23
				S66.17,20.82,92.08-5.09V1h202.46v-6.09C320.45,20.82,336.47,56.61,336.47,96.14z"/>
			<path class="st15" d="M334.99,96.14c0,39.13-15.86,74.55-41.5,100.19v-5.05H93.12v5.05c-25.64-25.64-41.5-61.06-41.5-100.19
				S67.48,21.59,93.12-4.05V1h200.37v-5.05C319.13,21.59,334.99,57.01,334.99,96.14z"/>
			<path class="st16" d="M333.52,96.14c0,38.72-15.69,73.77-41.07,99.14v-4H94.17v4C68.79,169.91,53.1,134.86,53.1,96.14
				S68.79,22.37,94.17-3v4h198.29v-4C317.82,22.37,333.52,57.42,333.52,96.14z"/>
			<path class="st17" d="M332.04,96.14c0,38.31-15.53,72.99-40.63,98.1v-2.96H95.21v2.96c-25.11-25.11-40.63-59.79-40.63-98.1
				S70.1,23.15,95.21-1.96V1h196.2v-2.96C316.51,23.15,332.04,57.83,332.04,96.14z"/>
			<path class="st18" d="M330.57,96.14c0,37.9-15.36,72.22-40.2,97.06v-1.92H96.25v1.92c-24.84-24.84-40.2-59.15-40.2-97.06
				s15.36-72.22,40.2-97.06V1h194.11v-1.92C315.2,23.92,330.57,58.24,330.57,96.14z"/>
			<path class="st19" d="M329.09,96.14c0,37.5-15.2,71.44-39.77,96.01v-0.87H97.3v0.87c-24.57-24.57-39.77-58.52-39.77-96.01
				S72.72,24.7,97.3,0.13V1h192.02V0.13C313.89,24.7,329.09,58.64,329.09,96.14z"/>
			<path class="st20" d="M327.61,96.14c0,37.09-15.03,70.66-39.34,94.97c-1.52,1.52-3.07,3-4.66,4.45v-4.28H103v4.28
				c-1.59-1.45-3.15-2.93-4.66-4.45C74.04,166.8,59,133.23,59,96.14S74.04,25.47,98.34,1.17c1.52-1.52,3.07-3,4.66-4.45V1h180.61
				v-4.28c1.59,1.45,3.15,2.93,4.66,4.45C312.58,25.47,327.61,59.05,327.61,96.14z"/>
			<path class="st21" d="M326.14,96.14c0,36.68-14.87,69.89-38.9,93.92c-1.5,1.5-3.04,2.97-4.61,4.4v-3.18H104v3.18
				c-1.57-1.43-3.11-2.9-4.61-4.4c-24.04-24.04-38.9-57.24-38.9-93.92s14.87-69.89,38.9-93.92c1.5-1.5,3.04-2.97,4.61-4.4V1h178.62
				v-3.18c1.57,1.43,3.11,2.9,4.61,4.4C311.27,26.25,326.14,59.46,326.14,96.14z"/>
			<path class="st22" d="M324.66,96.14c0,36.27-14.7,69.11-38.47,92.88c-2.97,2.97-6.08,5.8-9.33,8.48v-6.22H109.75v6.22
				c-3.24-2.68-6.36-5.51-9.33-8.48c-23.77-23.77-38.47-56.61-38.47-92.88s14.7-69.11,38.47-92.88c2.97-2.97,6.08-5.8,9.33-8.48V1
				h167.11v-6.22c3.24,2.68,6.36,5.51,9.33,8.48C309.96,27.03,324.66,59.87,324.66,96.14z"/>
			<path class="st23" d="M323.19,96.14c0,35.86-14.54,68.33-38.04,91.84c-2.94,2.94-6.02,5.74-9.22,8.38v-5.08H110.69v5.08
				c-3.21-2.65-6.29-5.44-9.22-8.38c-23.5-23.5-38.04-55.97-38.04-91.84S77.97,27.8,101.47,4.3c2.94-2.94,6.02-5.74,9.22-8.38V1
				h165.23v-5.08c3.21,2.65,6.29,5.44,9.22,8.38C308.65,27.8,323.19,60.27,323.19,96.14z"/>
			<path class="st24" d="M321.71,96.14c0,35.46-14.37,67.56-37.61,90.79c-2.9,2.9-5.95,5.67-9.12,8.29v-3.94H111.63v3.94
				c-3.17-2.62-6.21-5.38-9.12-8.29C79.28,163.7,64.91,131.6,64.91,96.14s14.37-67.56,37.61-90.79c2.9-2.9,5.95-5.67,9.12-8.29V1
				h163.35v-3.94c3.17,2.62,6.21,5.38,9.12,8.29C307.34,28.58,321.71,60.68,321.71,96.14z"/>
			<path class="st25" d="M320.23,96.14c0,35.05-14.21,66.78-37.18,89.75c-2.87,2.87-5.88,5.61-9.01,8.19v-2.8H112.57v2.8
				c-3.13-2.59-6.14-5.32-9.01-8.19c-22.97-22.97-37.18-54.7-37.18-89.75s14.21-66.78,37.18-89.75c2.87-2.87,5.88-5.61,9.01-8.19V1
				h161.47v-2.8c3.13,2.59,6.14,5.32,9.01,8.19C306.03,29.36,320.23,61.09,320.23,96.14z"/>
			<path class="st26" d="M318.76,96.14c0,34.64-14.04,66-36.74,88.71c-2.84,2.84-5.81,5.54-8.91,8.1v-1.66h-159.6v1.66
				c-3.1-2.56-6.07-5.26-8.91-8.1c-22.7-22.7-36.74-54.06-36.74-88.71s14.04-66,36.74-88.71c2.84-2.84,5.81-5.54,8.91-8.1V1h159.6
				v-1.66c3.1,2.56,6.07,5.26,8.91,8.1C304.72,30.13,318.76,61.5,318.76,96.14z"/>
			<path class="st27" d="M317.28,96.14c0,34.23-13.88,65.23-36.31,87.66c-2.8,2.8-5.74,5.48-8.8,8v-0.53H114.45v0.53
				c-3.06-2.53-6-5.2-8.8-8c-22.43-22.43-36.31-53.43-36.31-87.66s13.88-65.23,36.31-87.66c2.8-2.8,5.74-5.48,8.8-8V1h157.72V0.47
				c3.06,2.53,6,5.2,8.8,8C303.41,30.91,317.28,61.9,317.28,96.14z"/>
			<path class="st28" d="M315.81,96.14c0,33.83-13.71,64.45-35.88,86.62c-5.54,5.54-11.61,10.56-18.13,14.96v-6.44H124.82v6.44
				c-6.52-4.4-12.59-9.42-18.13-14.96c-22.17-22.17-35.88-52.79-35.88-86.62s13.71-64.45,35.88-86.62
				c5.54-5.54,11.61-10.56,18.13-14.96V1H261.8v-6.44c6.52,4.4,12.59,9.42,18.13,14.96C302.1,31.69,315.81,62.31,315.81,96.14z"/>
			<path class="st29" d="M314.33,96.14c0,33.42-13.55,63.68-35.45,85.58c-5.48,5.48-11.47,10.43-17.91,14.78v-5.22H125.64v5.22
				c-6.44-4.35-12.44-9.3-17.91-14.78c-21.9-21.9-35.45-52.16-35.45-85.58s13.55-63.68,35.45-85.58
				c5.48-5.48,11.47-10.43,17.91-14.78V1h135.33v-5.22c6.44,4.35,12.44,9.3,17.91,14.78C300.78,32.46,314.33,62.72,314.33,96.14z"/>
			<path class="st30" d="M312.85,96.14c0,33.01-13.38,62.9-35.01,84.53c-5.41,5.41-11.33,10.3-17.69,14.6v-3.99H126.47v3.99
				c-6.36-4.3-12.28-9.19-17.69-14.6c-21.63-21.63-35.01-51.52-35.01-84.53s13.38-62.9,35.01-84.53c5.41-5.41,11.33-10.3,17.69-14.6
				V1h133.68v-3.99c6.36,4.3,12.28,9.19,17.69,14.6C299.47,33.24,312.85,63.13,312.85,96.14z"/>
			<path class="st31" d="M311.38,96.14c0,32.6-13.22,62.12-34.58,83.49c-5.34,5.34-11.19,10.17-17.47,14.42v-2.77H127.29v2.77
				c-6.28-4.24-12.13-9.08-17.47-14.42c-21.37-21.37-34.58-50.88-34.58-83.49s13.22-62.12,34.58-83.49
				c5.34-5.34,11.19-10.17,17.47-14.42V1h132.03v-2.77c6.28,4.24,12.13,9.08,17.47,14.42C298.16,34.02,311.38,63.53,311.38,96.14z"
				/>
			<path class="st32" d="M309.9,96.14c0,32.2-13.05,61.35-34.15,82.45c-5.27,5.27-11.05,10.05-17.26,14.24v-1.54H128.12v1.54
				c-6.2-4.19-11.98-8.96-17.26-14.24c-21.1-21.1-34.15-50.25-34.15-82.45s13.05-61.35,34.15-82.45
				c5.27-5.27,11.05-10.05,17.26-14.24V1H258.5v-1.54c6.2,4.19,11.98,8.96,17.26,14.24C296.85,34.79,309.9,63.94,309.9,96.14z"/>
			<path class="st33" d="M308.43,96.14c0,31.79-12.89,60.57-33.72,81.4c-5.21,5.21-10.91,9.92-17.04,14.06v-0.32H128.94v0.32
				c-6.12-4.14-11.83-8.85-17.04-14.06c-20.83-20.83-33.72-49.61-33.72-81.4s12.89-60.57,33.72-81.4
				c5.21-5.21,10.91-9.92,17.04-14.06V1h128.73V0.68c6.12,4.14,11.83,8.85,17.04,14.06C295.54,35.57,308.43,64.35,308.43,96.14z"/>
			<path class="st34" d="M306.95,96.14c0,31.38-12.72,59.79-33.29,80.36c-5.14,5.14-10.77,9.79-16.82,13.88
				c-3.02,2.04-6.15,3.94-9.37,5.69v-4.79H139.14v4.79c-3.22-1.75-6.35-3.65-9.37-5.69c-6.05-4.08-11.68-8.74-16.82-13.88
				c-20.57-20.57-33.29-48.98-33.29-80.36s12.72-59.79,33.29-80.36c5.14-5.14,10.77-9.79,16.82-13.88c3.02-2.04,6.15-3.94,9.37-5.69
				V1h108.34v-4.79c3.22,1.75,6.35,3.65,9.37,5.69c6.05,4.08,11.68,8.74,16.82,13.88C294.23,36.35,306.95,64.76,306.95,96.14z"/>
			<path class="st35" d="M305.48,96.14c0,30.97-12.55,59.02-32.85,79.31c-5.07,5.07-10.63,9.67-16.6,13.7
				c-2.98,2.02-6.07,3.89-9.25,5.62v-3.49H139.84v3.49c-3.18-1.73-6.26-3.6-9.25-5.62c-5.97-4.03-11.53-8.62-16.6-13.7
				c-20.3-20.3-32.85-48.34-32.85-79.31s12.55-59.02,32.85-79.31c5.07-5.07,10.63-9.67,16.6-13.7c2.98-2.02,6.07-3.89,9.25-5.62V1
				h106.93v-3.49c3.18,1.73,6.26,3.6,9.25,5.62c5.97,4.03,11.53,8.62,16.6,13.7C292.92,37.12,305.48,65.16,305.48,96.14z"/>
			<path class="st36" d="M304,96.14c0,30.57-12.39,58.24-32.42,78.27c-10.02,10.02-21.94,18.12-35.18,23.72v-6.85h-86.17v6.85
				c-13.24-5.6-25.17-13.71-35.18-23.72c-20.03-20.03-32.42-47.7-32.42-78.27s12.39-58.24,32.42-78.27
				c10.02-10.02,21.94-18.12,35.18-23.72V1h86.17v-6.85c13.24,5.6,25.17,13.71,35.18,23.72C291.61,37.9,304,65.57,304,96.14z"/>
			<path class="st37" d="M302.52,96.14c0,30.16-12.22,57.46-31.99,77.23c-9.88,9.88-21.65,17.88-34.72,23.41v-5.49H150.8v5.49
				c-13.07-5.53-24.83-13.52-34.72-23.41C96.32,153.6,84.09,126.3,84.09,96.14s12.22-57.46,31.99-77.23
				c9.88-9.88,21.65-17.88,34.72-23.41V1h85.02v-5.49c13.07,5.53,24.83,13.52,34.72,23.41C290.3,38.68,302.52,65.98,302.52,96.14z"
				/>
			<path class="st38" d="M301.05,96.14c0,29.75-12.06,56.69-31.56,76.18c-9.75,9.75-21.36,17.64-34.25,23.09v-4.13h-83.87v4.13
				c-12.89-5.45-24.5-13.34-34.25-23.09c-19.5-19.5-31.56-46.43-31.56-76.18s12.06-56.69,31.56-76.18
				c9.75-9.75,21.36-17.64,34.25-23.09V1h83.87v-4.13c12.89,5.45,24.5,13.34,34.25,23.09C288.99,39.45,301.05,66.39,301.05,96.14z"
				/>
			<path class="st39" d="M299.57,96.14c0,29.34-11.89,55.91-31.12,75.14c-9.61,9.61-21.06,17.4-33.78,22.77v-2.77h-82.73v2.77
				c-12.71-5.38-24.16-13.16-33.78-22.77c-19.23-19.23-31.12-45.8-31.12-75.14S98.94,40.23,118.17,21
				c9.61-9.61,21.06-17.4,33.78-22.77V1h82.73v-2.77C247.38,3.6,258.83,11.38,268.45,21C287.68,40.23,299.57,66.79,299.57,96.14z"/>
			<path class="st40" d="M298.1,96.14c0,28.94-11.73,55.13-30.69,74.1c-9.48,9.48-20.77,17.15-33.31,22.46v-1.41h-81.58v1.41
				c-12.54-5.3-23.83-12.98-33.31-22.46c-18.96-18.96-30.69-45.16-30.69-74.1s11.73-55.13,30.69-74.1
				c9.48-9.48,20.77-17.15,33.31-22.46V1h81.58v-1.41c12.54,5.3,23.83,12.98,33.31,22.46C286.37,41.01,298.1,67.2,298.1,96.14z"/>
			<path class="st41" d="M296.62,96.14c0,28.53-11.56,54.36-30.26,73.05c-9.35,9.35-20.48,16.91-32.84,22.14v-0.05h-80.43v0.05
				c-12.36-5.23-23.49-12.79-32.84-22.14C101.56,150.5,90,124.67,90,96.14s11.56-54.36,30.26-73.05
				c9.35-9.35,20.48-16.91,32.84-22.14V1h80.43V0.95c12.36,5.23,23.49,12.79,32.84,22.14C285.06,41.78,296.62,67.61,296.62,96.14z"
				/>
			<circle class="st42" cx="193.31" cy="96.14" r="101.84"/>
			<circle class="st43" cx="193.31" cy="96.14" r="100.36"/>
			<circle class="st44" cx="193.31" cy="96.14" r="98.88"/>
			<circle class="st45" cx="193.31" cy="96.14" r="97.41"/>
			<circle class="st46" cx="193.31" cy="96.14" r="95.93"/>
			<circle class="st47" cx="193.31" cy="96.14" r="94.46"/>
			<circle class="st48" cx="193.31" cy="96.14" r="92.98"/>
			<circle class="st49" cx="193.31" cy="96.14" r="91.5"/>
			<circle class="st50" cx="193.31" cy="96.14" r="90.03"/>
			<circle class="st51" cx="193.31" cy="96.14" r="88.55"/>
			<circle class="st52" cx="193.31" cy="96.14" r="87.08"/>
			<circle class="st53" cx="193.31" cy="96.14" r="85.6"/>
			<circle class="st54" cx="193.31" cy="96.14" r="84.13"/>
			<circle class="st55" cx="193.31" cy="96.14" r="82.65"/>
			<circle class="st56" cx="193.31" cy="96.14" r="81.17"/>
			<circle class="st57" cx="193.31" cy="96.14" r="79.7"/>
			<circle class="st58" cx="193.31" cy="96.14" r="78.22"/>
			<circle class="st59" cx="193.31" cy="96.14" r="76.75"/>
			<circle class="st60" cx="193.31" cy="96.14" r="75.27"/>
			<circle class="st61" cx="193.31" cy="96.14" r="73.79"/>
			<circle class="st62" cx="193.31" cy="96.14" r="72.32"/>
			<circle class="st63" cx="193.31" cy="96.14" r="70.84"/>
			<circle class="st64" cx="193.31" cy="96.14" r="69.37"/>
			<circle class="st65" cx="193.31" cy="96.14" r="67.89"/>
			<circle class="st66" cx="193.31" cy="96.14" r="66.41"/>
			<circle class="st67" cx="193.31" cy="96.14" r="64.94"/>
			<circle class="st68" cx="193.31" cy="96.14" r="63.46"/>
			<circle class="st69" cx="193.31" cy="96.14" r="61.99"/>
			<circle class="st70" cx="193.31" cy="96.14" r="60.51"/>
			<circle class="st71" cx="193.31" cy="96.14" r="59.04"/>
			<circle class="st72" cx="193.31" cy="96.14" r="57.56"/>
			<circle class="st73" cx="193.31" cy="96.14" r="56.08"/>
			<circle class="st74" cx="193.31" cy="96.14" r="54.61"/>
			<circle class="st75" cx="193.31" cy="96.14" r="53.13"/>
			<circle class="st76" cx="193.31" cy="96.14" r="51.66"/>
			<circle class="st77" cx="193.31" cy="96.14" r="50.18"/>
			<circle class="st78" cx="193.31" cy="96.14" r="48.7"/>
			<circle class="st79" cx="193.31" cy="96.14" r="47.23"/>
			<circle class="st80" cx="193.31" cy="96.14" r="45.75"/>
			<circle class="st81" cx="193.31" cy="96.14" r="44.28"/>
			<circle class="st82" cx="193.31" cy="96.14" r="42.8"/>
			<circle class="st83" cx="193.31" cy="96.14" r="41.32"/>
			<circle class="st84" cx="193.31" cy="96.14" r="39.85"/>
			<circle class="st85" cx="193.31" cy="96.14" r="38.37"/>
			<circle class="st86" cx="193.31" cy="96.14" r="36.9"/>
			<circle class="st87" cx="193.31" cy="96.14" r="35.42"/>
			<circle class="st88" cx="193.31" cy="96.14" r="33.95"/>
			<circle class="st89" cx="193.31" cy="96.14" r="32.47"/>
			<circle class="st90" cx="193.31" cy="96.14" r="30.99"/>
			<circle class="st91" cx="193.31" cy="96.14" r="29.52"/>
			<circle class="st92" cx="193.31" cy="96.14" r="28.04"/>
			<circle class="st93" cx="193.31" cy="96.14" r="26.57"/>
			<circle class="st94" cx="193.31" cy="96.14" r="25.09"/>
			<circle class="st95" cx="193.31" cy="96.14" r="23.61"/>
			<circle class="st96" cx="193.31" cy="96.14" r="22.14"/>
			<circle class="st97" cx="193.31" cy="96.14" r="20.66"/>
			<circle class="st98" cx="193.31" cy="96.14" r="19.19"/>
			<circle class="st99" cx="193.31" cy="96.14" r="17.71"/>
			<circle class="st100" cx="193.31" cy="96.14" r="16.23"/>
			<circle class="st101" cx="193.31" cy="96.14" r="14.76"/>
			<circle class="st102" cx="193.31" cy="96.14" r="13.28"/>
			<circle class="st103" cx="193.31" cy="96.14" r="11.81"/>
			<circle class="st104" cx="193.31" cy="96.14" r="10.33"/>
			<circle class="st105" cx="193.31" cy="96.14" r="8.86"/>
			<circle class="st106" cx="193.31" cy="96.14" r="7.38"/>
			<circle class="st107" cx="193.31" cy="96.14" r="5.9"/>
			<circle class="st108" cx="193.31" cy="96.14" r="4.43"/>
			<circle class="st109" cx="193.31" cy="96.14" r="2.95"/>
			<circle class="st110" cx="193.31" cy="96.14" r="1.48"/>
		</g>
	</g>
</g>
<g>
	<g>
		<path class="st2" d="M367.14,113.25h-94.37c-9.45,0-17.12-7.66-17.12-17.12v0c0-9.45,7.66-17.12,17.12-17.12h94.37
			c9.45,0,17.12,7.66,17.12,17.12v0C384.26,105.59,376.6,113.25,367.14,113.25z"/>
	</g>
</g>
<g>
	<g>
		<path class="st3" d="M384.26,173.16c0,9.45-7.66,17.12-17.12,17.12h-74.32c-27.51,0-54.28-13.18-73.44-36.16l-78.43-94.03
			C128.12,44.7,111.37,36.23,93.8,36.23H19.47c-9.45,0-17.12-7.66-17.12-17.12v0C2.36,9.66,10.02,2,19.47,2H93.8
			c27.51,0,54.28,13.18,73.44,36.16l78.43,94.03c12.83,15.38,29.58,23.85,47.15,23.85h74.32
			C376.6,156.05,384.26,163.71,384.26,173.16L384.26,173.16z"/>
	</g>
</g>
<g>
	<g>
		<path class="st4" d="M114.28,113.25H19.91c-9.45,0-17.12-7.66-17.12-17.12v0c0-9.45,7.66-17.12,17.12-17.12h94.37
			c9.45,0,17.12,7.66,17.12,17.12v0C131.4,105.59,123.74,113.25,114.28,113.25z"/>
	</g>
</g>
<g>
	<g>
		<g>
			<defs>
				<path id="SVGID_5_" d="M93.8,190.28H19.47c-9.45,0-17.12-7.66-17.12-17.12v0c0-9.45,7.66-17.12,17.12-17.12H93.8
					c17.58,0,34.32-8.47,47.15-23.85l78.43-94.03C238.55,15.18,265.31,2,292.82,2h74.32c9.45,0,17.12,7.66,17.12,17.12v0
					c0,9.45-7.66,17.12-17.12,17.12h-74.32c-17.58,0-34.32,8.47-47.15,23.85l-78.43,94.03C148.07,177.1,121.3,190.28,93.8,190.28z"
					/>
			</defs>
			<clipPath id="SVGID_6_">
				<use xlink:href="#SVGID_5_"  style="overflow:visible;"/>
			</clipPath>
			<rect x="2.36" y="2" class="st111" width="381.9" height="188.28"/>
			<path class="st111" d="M343.85,96.14c0,20.79-4.21,40.59-11.83,58.6c-3.81,9.01-8.47,17.56-13.88,25.57
				c-2.71,4-5.6,7.87-8.67,11.59v-0.62H77.14v0.62c-3.07-3.72-5.96-7.58-8.67-11.59c-5.41-8.01-10.07-16.57-13.88-25.57
				c-7.62-18.01-11.83-37.81-11.83-58.6s4.21-40.59,11.83-58.6c3.81-9.01,8.47-17.56,13.88-25.57c2.71-4,5.6-7.87,8.67-11.59V1
				h232.33V0.38c3.07,3.72,5.96,7.58,8.67,11.59c5.41,8.01,10.07,16.57,13.88,25.57C339.64,55.55,343.85,75.35,343.85,96.14z"/>
			<path class="st112" d="M342.37,96.14c0,20.58-4.17,40.19-11.71,58.02c-3.77,8.92-8.39,17.39-13.74,25.32
				c-2.68,3.97-5.54,7.79-8.58,11.48c-1.52,1.84-3.08,3.64-4.69,5.41v-5.09H82.97v5.09c-1.6-1.76-3.17-3.57-4.69-5.41
				c-3.04-3.68-5.9-7.51-8.58-11.48c-5.36-7.93-9.97-16.4-13.74-25.32c-7.54-17.83-11.71-37.44-11.71-58.02s4.17-40.19,11.71-58.02
				c3.77-8.92,8.39-17.39,13.74-25.32C72.38,8.83,75.24,5,78.28,1.32c1.52-1.84,3.08-3.64,4.69-5.41V1h220.68v-5.09
				c1.6,1.76,3.17,3.57,4.69,5.41c3.04,3.68,5.9,7.51,8.58,11.48c5.36,7.93,9.97,16.4,13.74,25.32
				C338.2,55.95,342.37,75.56,342.37,96.14z"/>
			<path class="st113" d="M340.9,96.14c0,20.38-4.13,39.79-11.6,57.45c-3.73,8.83-8.3,17.22-13.61,25.07
				c-2.65,3.93-5.49,7.72-8.5,11.36c-1.5,1.82-3.05,3.61-4.64,5.36v-4.1H84.06v4.1c-1.59-1.75-3.13-3.53-4.64-5.36
				c-3.01-3.64-5.84-7.44-8.5-11.36c-5.3-7.85-9.87-16.24-13.61-25.07c-7.47-17.66-11.6-37.07-11.6-57.45s4.13-39.79,11.6-57.45
				c3.73-8.83,8.3-17.22,13.61-25.07c2.65-3.93,5.49-7.72,8.5-11.36c1.5-1.82,3.05-3.61,4.64-5.36V1h218.5v-4.1
				c1.59,1.75,3.13,3.53,4.64,5.36c3.01,3.64,5.84,7.44,8.5,11.36c5.3,7.85,9.87,16.24,13.61,25.07
				C336.77,56.35,340.9,75.76,340.9,96.14z"/>
			<path class="st114" d="M339.42,96.14c0,20.17-4.09,39.39-11.48,56.87c-3.7,8.74-8.22,17.05-13.47,24.82
				c-2.63,3.89-5.43,7.64-8.41,11.25c-1.49,1.8-3.02,3.57-4.59,5.3v-3.1H85.15v3.1c-1.57-1.73-3.1-3.5-4.59-5.3
				c-2.98-3.61-5.79-7.36-8.41-11.25c-5.25-7.77-9.77-16.08-13.47-24.82c-7.39-17.48-11.48-36.7-11.48-56.87s4.09-39.39,11.48-56.87
				c3.7-8.74,8.22-17.05,13.47-24.82c2.63-3.89,5.43-7.64,8.41-11.25c1.49-1.8,3.02-3.57,4.59-5.3V1h216.31v-3.1
				c1.57,1.73,3.1,3.5,4.59,5.3c2.98,3.61,5.79,7.36,8.41,11.25c5.25,7.77,9.77,16.08,13.47,24.82
				C335.33,56.75,339.42,75.96,339.42,96.14z"/>
			<path class="st115" d="M337.94,96.14c0,19.97-4.05,39-11.37,56.3c-3.66,8.65-8.14,16.87-13.34,24.57
				c-2.6,3.85-5.38,7.56-8.33,11.13c-1.47,1.79-2.99,3.54-4.55,5.25v-2.11H86.25v2.11c-1.56-1.71-3.07-3.46-4.55-5.25
				c-2.95-3.57-5.73-7.29-8.33-11.13c-5.2-7.69-9.68-15.92-13.34-24.57c-7.32-17.3-11.37-36.33-11.37-56.3s4.05-39,11.37-56.3
				c3.66-8.65,8.14-16.87,13.34-24.57c2.6-3.85,5.38-7.56,8.33-11.13c1.47-1.79,2.99-3.54,4.55-5.25V1h214.13v-2.11
				c1.56,1.71,3.07,3.46,4.55,5.25c2.95,3.57,5.73,7.29,8.33,11.13c5.2,7.69,9.68,15.92,13.34,24.57
				C333.9,57.14,337.94,76.17,337.94,96.14z"/>
			<path class="st116" d="M336.47,96.14c0,39.53-16.02,75.32-41.93,101.23v-6.09H92.08v6.09c-25.91-25.91-41.93-61.7-41.93-101.23
				S66.17,20.82,92.08-5.09V1h202.46v-6.09C320.45,20.82,336.47,56.61,336.47,96.14z"/>
			<path class="st117" d="M334.99,96.14c0,39.13-15.86,74.55-41.5,100.19v-5.05H93.12v5.05c-25.64-25.64-41.5-61.06-41.5-100.19
				S67.48,21.59,93.12-4.05V1h200.37v-5.05C319.13,21.59,334.99,57.01,334.99,96.14z"/>
			<path class="st118" d="M333.52,96.14c0,38.72-15.69,73.77-41.07,99.14v-4H94.17v4C68.79,169.91,53.1,134.86,53.1,96.14
				S68.79,22.37,94.17-3v4h198.29v-4C317.82,22.37,333.52,57.42,333.52,96.14z"/>
			<path class="st119" d="M332.04,96.14c0,38.31-15.53,72.99-40.63,98.1v-2.96H95.21v2.96c-25.11-25.11-40.63-59.79-40.63-98.1
				S70.1,23.15,95.21-1.96V1h196.2v-2.96C316.51,23.15,332.04,57.83,332.04,96.14z"/>
			<path class="st120" d="M330.57,96.14c0,37.9-15.36,72.22-40.2,97.06v-1.92H96.25v1.92c-24.84-24.84-40.2-59.15-40.2-97.06
				s15.36-72.22,40.2-97.06V1h194.11v-1.92C315.2,23.92,330.57,58.24,330.57,96.14z"/>
			<path class="st121" d="M329.09,96.14c0,37.5-15.2,71.44-39.77,96.01v-0.87H97.3v0.87c-24.57-24.57-39.77-58.52-39.77-96.01
				S72.72,24.7,97.3,0.13V1h192.02V0.13C313.89,24.7,329.09,58.64,329.09,96.14z"/>
			<path class="st122" d="M327.61,96.14c0,37.09-15.03,70.66-39.34,94.97c-1.52,1.52-3.07,3-4.66,4.45v-4.28H103v4.28
				c-1.59-1.45-3.15-2.93-4.66-4.45C74.04,166.8,59,133.23,59,96.14S74.04,25.47,98.34,1.17c1.52-1.52,3.07-3,4.66-4.45V1h180.61
				v-4.28c1.59,1.45,3.15,2.93,4.66,4.45C312.58,25.47,327.61,59.05,327.61,96.14z"/>
			<path class="st123" d="M326.14,96.14c0,36.68-14.87,69.89-38.9,93.92c-1.5,1.5-3.04,2.97-4.61,4.4v-3.18H104v3.18
				c-1.57-1.43-3.11-2.9-4.61-4.4c-24.04-24.04-38.9-57.24-38.9-93.92s14.87-69.89,38.9-93.92c1.5-1.5,3.04-2.97,4.61-4.4V1h178.62
				v-3.18c1.57,1.43,3.11,2.9,4.61,4.4C311.27,26.25,326.14,59.46,326.14,96.14z"/>
			<path class="st124" d="M324.66,96.14c0,36.27-14.7,69.11-38.47,92.88c-2.97,2.97-6.08,5.8-9.33,8.48v-6.22H109.75v6.22
				c-3.24-2.68-6.36-5.51-9.33-8.48c-23.77-23.77-38.47-56.61-38.47-92.88s14.7-69.11,38.47-92.88c2.97-2.97,6.08-5.8,9.33-8.48V1
				h167.11v-6.22c3.24,2.68,6.36,5.51,9.33,8.48C309.96,27.03,324.66,59.87,324.66,96.14z"/>
			<path class="st125" d="M323.19,96.14c0,35.86-14.54,68.33-38.04,91.84c-2.94,2.94-6.02,5.74-9.22,8.38v-5.08H110.69v5.08
				c-3.21-2.65-6.29-5.44-9.22-8.38c-23.5-23.5-38.04-55.97-38.04-91.84S77.97,27.8,101.47,4.3c2.94-2.94,6.02-5.74,9.22-8.38V1
				h165.23v-5.08c3.21,2.65,6.29,5.44,9.22,8.38C308.65,27.8,323.19,60.27,323.19,96.14z"/>
			<path class="st126" d="M321.71,96.14c0,35.46-14.37,67.56-37.61,90.79c-2.9,2.9-5.95,5.67-9.12,8.29v-3.94H111.63v3.94
				c-3.17-2.62-6.21-5.38-9.12-8.29C79.28,163.7,64.91,131.6,64.91,96.14s14.37-67.56,37.61-90.79c2.9-2.9,5.95-5.67,9.12-8.29V1
				h163.35v-3.94c3.17,2.62,6.21,5.38,9.12,8.29C307.34,28.58,321.71,60.68,321.71,96.14z"/>
			<path class="st127" d="M320.23,96.14c0,35.05-14.21,66.78-37.18,89.75c-2.87,2.87-5.88,5.61-9.01,8.19v-2.8H112.57v2.8
				c-3.13-2.59-6.14-5.32-9.01-8.19c-22.97-22.97-37.18-54.7-37.18-89.75s14.21-66.78,37.18-89.75c2.87-2.87,5.88-5.61,9.01-8.19V1
				h161.47v-2.8c3.13,2.59,6.14,5.32,9.01,8.19C306.03,29.36,320.23,61.09,320.23,96.14z"/>
			<path class="st128" d="M318.76,96.14c0,34.64-14.04,66-36.74,88.71c-2.84,2.84-5.81,5.54-8.91,8.1v-1.66h-159.6v1.66
				c-3.1-2.56-6.07-5.26-8.91-8.1c-22.7-22.7-36.74-54.06-36.74-88.71s14.04-66,36.74-88.71c2.84-2.84,5.81-5.54,8.91-8.1V1h159.6
				v-1.66c3.1,2.56,6.07,5.26,8.91,8.1C304.72,30.13,318.76,61.5,318.76,96.14z"/>
			<path class="st129" d="M317.28,96.14c0,34.23-13.88,65.23-36.31,87.66c-2.8,2.8-5.74,5.48-8.8,8v-0.53H114.45v0.53
				c-3.06-2.53-6-5.2-8.8-8c-22.43-22.43-36.31-53.43-36.31-87.66s13.88-65.23,36.31-87.66c2.8-2.8,5.74-5.48,8.8-8V1h157.72V0.47
				c3.06,2.53,6,5.2,8.8,8C303.41,30.91,317.28,61.9,317.28,96.14z"/>
			<path class="st130" d="M315.81,96.14c0,33.83-13.71,64.45-35.88,86.62c-5.54,5.54-11.61,10.56-18.13,14.96v-6.44H124.82v6.44
				c-6.52-4.4-12.59-9.42-18.13-14.96c-22.17-22.17-35.88-52.79-35.88-86.62s13.71-64.45,35.88-86.62
				c5.54-5.54,11.61-10.56,18.13-14.96V1H261.8v-6.44c6.52,4.4,12.59,9.42,18.13,14.96C302.1,31.69,315.81,62.31,315.81,96.14z"/>
			<path class="st131" d="M314.33,96.14c0,33.42-13.55,63.68-35.45,85.58c-5.48,5.48-11.47,10.43-17.91,14.78v-5.22H125.64v5.22
				c-6.44-4.35-12.44-9.3-17.91-14.78c-21.9-21.9-35.45-52.16-35.45-85.58s13.55-63.68,35.45-85.58
				c5.48-5.48,11.47-10.43,17.91-14.78V1h135.33v-5.22c6.44,4.35,12.44,9.3,17.91,14.78C300.78,32.46,314.33,62.72,314.33,96.14z"/>
			<path class="st132" d="M312.85,96.14c0,33.01-13.38,62.9-35.01,84.53c-5.41,5.41-11.33,10.3-17.69,14.6v-3.99H126.47v3.99
				c-6.36-4.3-12.28-9.19-17.69-14.6c-21.63-21.63-35.01-51.52-35.01-84.53s13.38-62.9,35.01-84.53c5.41-5.41,11.33-10.3,17.69-14.6
				V1h133.68v-3.99c6.36,4.3,12.28,9.19,17.69,14.6C299.47,33.24,312.85,63.13,312.85,96.14z"/>
			<path class="st133" d="M311.38,96.14c0,32.6-13.22,62.12-34.58,83.49c-5.34,5.34-11.19,10.17-17.47,14.42v-2.77H127.29v2.77
				c-6.28-4.24-12.13-9.08-17.47-14.42c-21.37-21.37-34.58-50.88-34.58-83.49s13.22-62.12,34.58-83.49
				c5.34-5.34,11.19-10.17,17.47-14.42V1h132.03v-2.77c6.28,4.24,12.13,9.08,17.47,14.42C298.16,34.02,311.38,63.53,311.38,96.14z"
				/>
			<path class="st134" d="M309.9,96.14c0,32.2-13.05,61.35-34.15,82.45c-5.27,5.27-11.05,10.05-17.26,14.24v-1.54H128.12v1.54
				c-6.2-4.19-11.98-8.96-17.26-14.24c-21.1-21.1-34.15-50.25-34.15-82.45s13.05-61.35,34.15-82.45
				c5.27-5.27,11.05-10.05,17.26-14.24V1H258.5v-1.54c6.2,4.19,11.98,8.96,17.26,14.24C296.85,34.79,309.9,63.94,309.9,96.14z"/>
			<path class="st135" d="M308.43,96.14c0,31.79-12.89,60.57-33.72,81.4c-5.21,5.21-10.91,9.92-17.04,14.06v-0.32H128.94v0.32
				c-6.12-4.14-11.83-8.85-17.04-14.06c-20.83-20.83-33.72-49.61-33.72-81.4s12.89-60.57,33.72-81.4
				c5.21-5.21,10.91-9.92,17.04-14.06V1h128.73V0.68c6.12,4.14,11.83,8.85,17.04,14.06C295.54,35.57,308.43,64.35,308.43,96.14z"/>
			<path class="st136" d="M306.95,96.14c0,31.38-12.72,59.79-33.29,80.36c-5.14,5.14-10.77,9.79-16.82,13.88
				c-3.02,2.04-6.15,3.94-9.37,5.69v-4.79H139.14v4.79c-3.22-1.75-6.35-3.65-9.37-5.69c-6.05-4.08-11.68-8.74-16.82-13.88
				c-20.57-20.57-33.29-48.98-33.29-80.36s12.72-59.79,33.29-80.36c5.14-5.14,10.77-9.79,16.82-13.88c3.02-2.04,6.15-3.94,9.37-5.69
				V1h108.34v-4.79c3.22,1.75,6.35,3.65,9.37,5.69c6.05,4.08,11.68,8.74,16.82,13.88C294.23,36.35,306.95,64.76,306.95,96.14z"/>
			<path class="st137" d="M305.48,96.14c0,30.97-12.55,59.02-32.85,79.31c-5.07,5.07-10.63,9.67-16.6,13.7
				c-2.98,2.02-6.07,3.89-9.25,5.62v-3.49H139.84v3.49c-3.18-1.73-6.26-3.6-9.25-5.62c-5.97-4.03-11.53-8.62-16.6-13.7
				c-20.3-20.3-32.85-48.34-32.85-79.31s12.55-59.02,32.85-79.31c5.07-5.07,10.63-9.67,16.6-13.7c2.98-2.02,6.07-3.89,9.25-5.62V1
				h106.93v-3.49c3.18,1.73,6.26,3.6,9.25,5.62c5.97,4.03,11.53,8.62,16.6,13.7C292.92,37.12,305.48,65.16,305.48,96.14z"/>
			<path class="st138" d="M304,96.14c0,30.57-12.39,58.24-32.42,78.27c-10.02,10.02-21.94,18.12-35.18,23.72v-6.85h-86.17v6.85
				c-13.24-5.6-25.17-13.71-35.18-23.72c-20.03-20.03-32.42-47.7-32.42-78.27s12.39-58.24,32.42-78.27
				c10.02-10.02,21.94-18.12,35.18-23.72V1h86.17v-6.85c13.24,5.6,25.17,13.71,35.18,23.72C291.61,37.9,304,65.57,304,96.14z"/>
			<path class="st139" d="M302.52,96.14c0,30.16-12.22,57.46-31.99,77.23c-9.88,9.88-21.65,17.88-34.72,23.41v-5.49H150.8v5.49
				c-13.07-5.53-24.83-13.52-34.72-23.41C96.32,153.6,84.09,126.3,84.09,96.14s12.22-57.46,31.99-77.23
				c9.88-9.88,21.65-17.88,34.72-23.41V1h85.02v-5.49c13.07,5.53,24.83,13.52,34.72,23.41C290.3,38.68,302.52,65.98,302.52,96.14z"
				/>
			<path class="st140" d="M301.05,96.14c0,29.75-12.06,56.69-31.56,76.18c-9.75,9.75-21.36,17.64-34.25,23.09v-4.13h-83.87v4.13
				c-12.89-5.45-24.5-13.34-34.25-23.09c-19.5-19.5-31.56-46.43-31.56-76.18s12.06-56.69,31.56-76.18
				c9.75-9.75,21.36-17.64,34.25-23.09V1h83.87v-4.13c12.89,5.45,24.5,13.34,34.25,23.09C288.99,39.45,301.05,66.39,301.05,96.14z"
				/>
			<path class="st141" d="M299.57,96.14c0,29.34-11.89,55.91-31.12,75.14c-9.61,9.61-21.06,17.4-33.78,22.77v-2.77h-82.73v2.77
				c-12.71-5.38-24.16-13.16-33.78-22.77c-19.23-19.23-31.12-45.8-31.12-75.14S98.94,40.23,118.17,21
				c9.61-9.61,21.06-17.4,33.78-22.77V1h82.73v-2.77C247.38,3.6,258.83,11.38,268.45,21C287.68,40.23,299.57,66.79,299.57,96.14z"/>
			<path class="st142" d="M298.1,96.14c0,28.94-11.73,55.13-30.69,74.1c-9.48,9.48-20.77,17.15-33.31,22.46v-1.41h-81.58v1.41
				c-12.54-5.3-23.83-12.98-33.31-22.46c-18.96-18.96-30.69-45.16-30.69-74.1s11.73-55.13,30.69-74.1
				c9.48-9.48,20.77-17.15,33.31-22.46V1h81.58v-1.41c12.54,5.3,23.83,12.98,33.31,22.46C286.37,41.01,298.1,67.2,298.1,96.14z"/>
			<path class="st143" d="M296.62,96.14c0,28.53-11.56,54.36-30.26,73.05c-9.35,9.35-20.48,16.91-32.84,22.14v-0.05h-80.43v0.05
				c-12.36-5.23-23.49-12.79-32.84-22.14C101.56,150.5,90,124.67,90,96.14s11.56-54.36,30.26-73.05
				c9.35-9.35,20.48-16.91,32.84-22.14V1h80.43V0.95c12.36,5.23,23.49,12.79,32.84,22.14C285.06,41.78,296.62,67.61,296.62,96.14z"
				/>
			<circle class="st144" cx="193.31" cy="96.14" r="101.84"/>
			<circle class="st145" cx="193.31" cy="96.14" r="100.36"/>
			<circle class="st146" cx="193.31" cy="96.14" r="98.88"/>
			<circle class="st147" cx="193.31" cy="96.14" r="97.41"/>
			<circle class="st148" cx="193.31" cy="96.14" r="95.93"/>
			<circle class="st149" cx="193.31" cy="96.14" r="94.46"/>
			<circle class="st150" cx="193.31" cy="96.14" r="92.98"/>
			<circle class="st151" cx="193.31" cy="96.14" r="91.5"/>
			<circle class="st152" cx="193.31" cy="96.14" r="90.03"/>
			<circle class="st153" cx="193.31" cy="96.14" r="88.55"/>
			<circle class="st154" cx="193.31" cy="96.14" r="87.08"/>
			<circle class="st155" cx="193.31" cy="96.14" r="85.6"/>
			<circle class="st156" cx="193.31" cy="96.14" r="84.13"/>
			<circle class="st157" cx="193.31" cy="96.14" r="82.65"/>
			<circle class="st158" cx="193.31" cy="96.14" r="81.17"/>
			<circle class="st159" cx="193.31" cy="96.14" r="79.7"/>
			<circle class="st160" cx="193.31" cy="96.14" r="78.22"/>
			<circle class="st161" cx="193.31" cy="96.14" r="76.75"/>
			<circle class="st162" cx="193.31" cy="96.14" r="75.27"/>
			<circle class="st163" cx="193.31" cy="96.14" r="73.79"/>
			<circle class="st164" cx="193.31" cy="96.14" r="72.32"/>
			<circle class="st165" cx="193.31" cy="96.14" r="70.84"/>
			<circle class="st166" cx="193.31" cy="96.14" r="69.37"/>
			<circle class="st167" cx="193.31" cy="96.14" r="67.89"/>
			<circle class="st168" cx="193.31" cy="96.14" r="66.41"/>
			<circle class="st169" cx="193.31" cy="96.14" r="64.94"/>
			<circle class="st170" cx="193.31" cy="96.14" r="63.46"/>
			<circle class="st171" cx="193.31" cy="96.14" r="61.99"/>
			<circle class="st172" cx="193.31" cy="96.14" r="60.51"/>
			<circle class="st173" cx="193.31" cy="96.14" r="59.04"/>
			<circle class="st174" cx="193.31" cy="96.14" r="57.56"/>
			<circle class="st175" cx="193.31" cy="96.14" r="56.08"/>
			<circle class="st176" cx="193.31" cy="96.14" r="54.61"/>
			<circle class="st177" cx="193.31" cy="96.14" r="53.13"/>
			<circle class="st178" cx="193.31" cy="96.14" r="51.66"/>
			<circle class="st179" cx="193.31" cy="96.14" r="50.18"/>
			<circle class="st180" cx="193.31" cy="96.14" r="48.7"/>
			<circle class="st181" cx="193.31" cy="96.14" r="47.23"/>
			<circle class="st182" cx="193.31" cy="96.14" r="45.75"/>
			<circle class="st183" cx="193.31" cy="96.14" r="44.28"/>
			<circle class="st184" cx="193.31" cy="96.14" r="42.8"/>
			<circle class="st185" cx="193.31" cy="96.14" r="41.32"/>
			<circle class="st186" cx="193.31" cy="96.14" r="39.85"/>
			<circle class="st187" cx="193.31" cy="96.14" r="38.37"/>
			<circle class="st188" cx="193.31" cy="96.14" r="36.9"/>
			<circle class="st189" cx="193.31" cy="96.14" r="35.42"/>
			<circle class="st190" cx="193.31" cy="96.14" r="33.95"/>
			<circle class="st191" cx="193.31" cy="96.14" r="32.47"/>
			<circle class="st192" cx="193.31" cy="96.14" r="30.99"/>
			<circle class="st193" cx="193.31" cy="96.14" r="29.52"/>
			<circle class="st194" cx="193.31" cy="96.14" r="28.04"/>
			<circle class="st195" cx="193.31" cy="96.14" r="26.57"/>
			<circle class="st196" cx="193.31" cy="96.14" r="25.09"/>
			<circle class="st197" cx="193.31" cy="96.14" r="23.61"/>
			<circle class="st198" cx="193.31" cy="96.14" r="22.14"/>
			<circle class="st199" cx="193.31" cy="96.14" r="20.66"/>
			<circle class="st200" cx="193.31" cy="96.14" r="19.19"/>
			<circle class="st201" cx="193.31" cy="96.14" r="17.71"/>
			<circle class="st202" cx="193.31" cy="96.14" r="16.23"/>
			<circle class="st203" cx="193.31" cy="96.14" r="14.76"/>
			<circle class="st204" cx="193.31" cy="96.14" r="13.28"/>
			<circle class="st205" cx="193.31" cy="96.14" r="11.81"/>
			<circle class="st206" cx="193.31" cy="96.14" r="10.33"/>
			<circle class="st207" cx="193.31" cy="96.14" r="8.86"/>
			<circle class="st208" cx="193.31" cy="96.14" r="7.38"/>
			<circle class="st209" cx="193.31" cy="96.14" r="5.9"/>
			<circle class="st210" cx="193.31" cy="96.14" r="4.43"/>
			<circle class="st211" cx="193.31" cy="96.14" r="2.95"/>
			<circle class="st212" cx="193.31" cy="96.14" r="1.48"/>
		</g>
	</g>
</g>
<g>
	<g>
		<path class="st4" d="M367.14,113.25h-94.37c-9.45,0-17.12-7.66-17.12-17.12v0c0-9.45,7.66-17.12,17.12-17.12h94.37
			c9.45,0,17.12,7.66,17.12,17.12v0C384.26,105.59,376.6,113.25,367.14,113.25z"/>
	</g>
</g>
<g>
	<g>
		<path class="st4" d="M384.26,173.16c0,9.45-7.66,17.12-17.12,17.12h-74.32c-27.51,0-54.28-13.18-73.44-36.16l-78.43-94.03
			C128.12,44.7,111.37,36.23,93.8,36.23H19.47c-9.45,0-17.12-7.66-17.12-17.12v0C2.36,9.66,10.02,2,19.47,2H93.8
			c27.51,0,54.28,13.18,73.44,36.16l78.43,94.03c12.83,15.38,29.58,23.85,47.15,23.85h74.32
			C376.6,156.05,384.26,163.71,384.26,173.16L384.26,173.16z"/>
	</g>
</g>
<g>
	<path class="st6" d="M5.8,265.58c-0.37-0.37-0.55-0.83-0.55-1.37v-25.05c0-0.57,0.18-1.03,0.55-1.39s0.83-0.54,1.37-0.54h16.72
		c0.57,0,1.02,0.17,1.37,0.5c0.35,0.33,0.52,0.77,0.52,1.31c0,0.52-0.17,0.94-0.52,1.26c-0.35,0.32-0.8,0.48-1.37,0.48H9.09v8.99
		h10.62c0.54,0,0.99,0.17,1.35,0.5c0.36,0.33,0.54,0.76,0.54,1.28c0,0.52-0.18,0.94-0.54,1.28c-0.36,0.33-0.81,0.5-1.35,0.5H9.09
		v9.25h14.8c0.57,0,1.02,0.16,1.37,0.48c0.35,0.32,0.52,0.74,0.52,1.26c0,0.54-0.17,0.98-0.52,1.31c-0.35,0.33-0.8,0.5-1.37,0.5
		H7.17C6.63,266.13,6.17,265.95,5.8,265.58z"/>
	<path class="st6" d="M31.68,265.58c-0.36-0.37-0.54-0.83-0.54-1.37v-25.05c0-0.54,0.18-1,0.55-1.37s0.81-0.56,1.33-0.56
		c0.54,0,1,0.19,1.37,0.56s0.56,0.83,0.56,1.37v23.13h13.39c0.54,0,1,0.18,1.37,0.55s0.56,0.83,0.56,1.37c0,0.54-0.19,1-0.56,1.37
		s-0.83,0.55-1.37,0.55H33.03C32.49,266.13,32.04,265.95,31.68,265.58z"/>
	<path class="st6" d="M55.45,265.58c-0.37-0.37-0.55-0.83-0.55-1.37v-25.05c0-0.57,0.18-1.03,0.55-1.39s0.83-0.54,1.37-0.54
		c0.57,0,1.03,0.18,1.39,0.54c0.36,0.36,0.54,0.82,0.54,1.39v25.05c0,0.54-0.18,1-0.54,1.37c-0.36,0.37-0.82,0.55-1.39,0.55
		C56.28,266.13,55.82,265.95,55.45,265.58z"/>
	<path class="st6" d="M85.85,237.73c0.33,0.33,0.5,0.76,0.5,1.28c0,0.52-0.17,0.94-0.5,1.28s-0.76,0.5-1.28,0.5h-7.96v23.42
		c0,0.54-0.19,1-0.55,1.37c-0.37,0.37-0.83,0.55-1.37,0.55c-0.54,0-1-0.18-1.37-0.55s-0.55-0.83-0.55-1.37v-23.42h-7.99
		c-0.52,0-0.94-0.17-1.28-0.5s-0.5-0.76-0.5-1.28c0-0.52,0.17-0.94,0.5-1.28s0.76-0.5,1.28-0.5h19.79
		C85.09,237.23,85.52,237.4,85.85,237.73z"/>
	<path class="st6" d="M91.16,265.58c-0.37-0.37-0.55-0.83-0.55-1.37v-25.05c0-0.57,0.18-1.03,0.55-1.39s0.83-0.54,1.37-0.54h16.72
		c0.57,0,1.02,0.17,1.37,0.5c0.35,0.33,0.52,0.77,0.52,1.31c0,0.52-0.17,0.94-0.52,1.26c-0.35,0.32-0.8,0.48-1.37,0.48h-14.8v8.99
		h10.62c0.54,0,0.99,0.17,1.35,0.5c0.36,0.33,0.54,0.76,0.54,1.28c0,0.52-0.18,0.94-0.54,1.28c-0.36,0.33-0.81,0.5-1.35,0.5H94.45
		v9.25h14.8c0.57,0,1.02,0.16,1.37,0.48c0.35,0.32,0.52,0.74,0.52,1.26c0,0.54-0.17,0.98-0.52,1.31c-0.35,0.33-0.8,0.5-1.37,0.5
		H92.53C91.99,266.13,91.53,265.95,91.16,265.58z"/>
	<path class="st7" d="M127.9,265.58c-0.37-0.37-0.55-0.83-0.55-1.37v-25.05c0-0.57,0.18-1.03,0.55-1.39s0.83-0.54,1.37-0.54h16.72
		c0.57,0,1.02,0.17,1.37,0.5c0.35,0.33,0.52,0.77,0.52,1.31c0,0.52-0.17,0.94-0.52,1.26c-0.35,0.32-0.8,0.48-1.37,0.48h-14.8v8.99
		h10.62c0.54,0,0.99,0.17,1.35,0.5c0.36,0.33,0.54,0.76,0.54,1.28c0,0.52-0.18,0.94-0.54,1.28c-0.36,0.33-0.81,0.5-1.35,0.5h-10.62
		v9.25h14.8c0.57,0,1.02,0.16,1.37,0.48c0.35,0.32,0.52,0.74,0.52,1.26c0,0.54-0.17,0.98-0.52,1.31c-0.35,0.33-0.8,0.5-1.37,0.5
		h-16.72C128.73,266.13,128.27,265.95,127.9,265.58z"/>
	<path class="st7" d="M173.85,263.02c0.27,0.4,0.41,0.81,0.41,1.26c0,0.49-0.16,0.92-0.48,1.29c-0.32,0.37-0.75,0.55-1.29,0.55
		c-0.62,0-1.11-0.23-1.48-0.7l-8.03-11.14l-8.51,11.29c-0.37,0.37-0.81,0.55-1.33,0.55c-0.54,0-0.97-0.17-1.28-0.52
		c-0.31-0.35-0.46-0.76-0.46-1.26c0-0.49,0.15-0.94,0.44-1.33l8.62-11.47l-8.14-11.29c-0.25-0.32-0.37-0.7-0.37-1.15
		c0-0.52,0.16-0.96,0.48-1.33c0.32-0.37,0.75-0.56,1.29-0.56c0.64,0,1.1,0.19,1.37,0.56l7.96,11.03l8.29-11.03
		c0.35-0.37,0.8-0.56,1.37-0.56c0.52,0,0.93,0.17,1.24,0.52c0.31,0.35,0.46,0.76,0.46,1.26c0,0.42-0.14,0.84-0.41,1.26l-8.44,11.25
		L173.85,263.02z"/>
	<path class="st7" d="M180.29,265.58c-0.37-0.37-0.55-0.83-0.55-1.37v-25.05c0-0.57,0.18-1.03,0.55-1.39s0.83-0.54,1.37-0.54
		c0.57,0,1.03,0.18,1.39,0.54c0.36,0.36,0.54,0.82,0.54,1.39v10.62h17.17v-10.62c0-0.57,0.19-1.03,0.56-1.39
		c0.37-0.36,0.83-0.54,1.37-0.54s0.99,0.18,1.35,0.54s0.54,0.82,0.54,1.39v25.05c0,0.57-0.18,1.03-0.54,1.39s-0.81,0.54-1.35,0.54
		s-1-0.18-1.37-0.55c-0.37-0.37-0.56-0.83-0.56-1.37v-11.03h-17.17v11.03c0,0.54-0.18,1-0.54,1.37c-0.36,0.37-0.82,0.55-1.39,0.55
		C181.12,266.13,180.66,265.95,180.29,265.58z"/>
	<path class="st7" d="M212.52,265.58c-0.37-0.37-0.55-0.83-0.55-1.37v-25.05c0-0.57,0.18-1.03,0.55-1.39s0.83-0.54,1.37-0.54
		c0.57,0,1.03,0.18,1.39,0.54c0.36,0.36,0.54,0.82,0.54,1.39v25.05c0,0.54-0.18,1-0.54,1.37c-0.36,0.37-0.82,0.55-1.39,0.55
		C213.34,266.13,212.89,265.95,212.52,265.58z"/>
	<path class="st7" d="M223.76,265.58c-0.37-0.37-0.55-0.83-0.55-1.37v-25.05c0-0.57,0.18-1.03,0.55-1.39s0.83-0.54,1.37-0.54h8.84
		c1.65,0,3.12,0.33,4.4,0.98c1.28,0.65,2.29,1.57,3.02,2.74c0.73,1.17,1.09,2.5,1.09,3.98c0,1.21-0.33,2.29-0.98,3.26
		s-1.55,1.74-2.68,2.33c1.68,0.4,3,1.18,3.96,2.37c0.96,1.18,1.44,2.69,1.44,4.51c0,1.68-0.4,3.18-1.2,4.51
		c-0.8,1.33-1.92,2.37-3.37,3.11c-1.44,0.74-3.08,1.11-4.9,1.11h-9.62C224.59,266.13,224.13,265.95,223.76,265.58z M233.98,249.11
		c1.46,0,2.62-0.36,3.5-1.07c0.88-0.72,1.31-1.75,1.31-3.11c0-1.36-0.44-2.39-1.31-3.09c-0.88-0.7-2.04-1.05-3.5-1.05h-6.92v8.33
		H233.98z M234.75,262.58c1.73,0,3.12-0.45,4.18-1.35s1.59-2.18,1.59-3.83c0-1.53-0.52-2.7-1.57-3.51c-1.05-0.81-2.45-1.22-4.2-1.22
		h-7.7v9.92H234.75z"/>
	<path class="st7" d="M250.52,265.58c-0.37-0.37-0.55-0.83-0.55-1.37v-25.05c0-0.57,0.18-1.03,0.55-1.39s0.83-0.54,1.37-0.54
		c0.57,0,1.03,0.18,1.39,0.54c0.36,0.36,0.54,0.82,0.54,1.39v25.05c0,0.54-0.18,1-0.54,1.37c-0.36,0.37-0.82,0.55-1.39,0.55
		C251.34,266.13,250.89,265.95,250.52,265.58z"/>
	<path class="st7" d="M280.91,237.73c0.33,0.33,0.5,0.76,0.5,1.28c0,0.52-0.17,0.94-0.5,1.28s-0.76,0.5-1.28,0.5h-7.96v23.42
		c0,0.54-0.18,1-0.55,1.37s-0.83,0.55-1.37,0.55c-0.54,0-1-0.18-1.37-0.55s-0.55-0.83-0.55-1.37v-23.42h-7.99
		c-0.52,0-0.94-0.17-1.28-0.5s-0.5-0.76-0.5-1.28c0-0.52,0.17-0.94,0.5-1.28s0.76-0.5,1.28-0.5h19.79
		C280.15,237.23,280.58,237.4,280.91,237.73z"/>
	<path class="st7" d="M286.22,265.58c-0.37-0.37-0.55-0.83-0.55-1.37v-25.05c0-0.57,0.18-1.03,0.55-1.39s0.83-0.54,1.37-0.54
		c0.57,0,1.03,0.18,1.39,0.54c0.36,0.36,0.54,0.82,0.54,1.39v25.05c0,0.54-0.18,1-0.54,1.37c-0.36,0.37-0.82,0.55-1.39,0.55
		C287.05,266.13,286.59,265.95,286.22,265.58z"/>
	<path class="st7" d="M302.63,264.62c-2.23-1.26-3.96-3.02-5.2-5.27c-1.23-2.26-1.85-4.82-1.85-7.68s0.62-5.41,1.85-7.66
		c1.23-2.24,2.97-4,5.2-5.25s4.78-1.89,7.64-1.89c2.84,0,5.37,0.63,7.6,1.89s3.97,3.01,5.22,5.25c1.25,2.25,1.87,4.8,1.87,7.66
		s-0.62,5.42-1.87,7.68c-1.25,2.26-2.98,4.01-5.2,5.27c-2.22,1.26-4.76,1.89-7.62,1.89S304.86,265.87,302.63,264.62z M315.93,261.53
		c1.68-1,2.98-2.36,3.92-4.09c0.94-1.73,1.41-3.65,1.41-5.77s-0.47-4.04-1.41-5.77c-0.94-1.73-2.24-3.08-3.9-4.07
		s-3.56-1.48-5.68-1.48s-4.01,0.49-5.68,1.48s-2.97,2.34-3.9,4.07c-0.94,1.73-1.41,3.65-1.41,5.77s0.47,4.05,1.41,5.77
		c0.94,1.73,2.25,3.09,3.92,4.09c1.68,1,3.56,1.5,5.66,1.5S314.25,262.52,315.93,261.53z"/>
	<path class="st7" d="M331.52,265.6c-0.36-0.36-0.54-0.82-0.54-1.39v-25.05c0-0.57,0.18-1.03,0.54-1.39s0.81-0.54,1.35-0.54
		c0.27,0,0.54,0.07,0.81,0.2c0.27,0.14,0.49,0.3,0.67,0.5l16.13,21.46v-20.24c0-0.57,0.18-1.03,0.55-1.39s0.83-0.54,1.37-0.54
		c0.54,0,0.99,0.18,1.35,0.54c0.36,0.36,0.54,0.82,0.54,1.39v25.05c0,0.57-0.18,1.03-0.54,1.39c-0.36,0.36-0.81,0.54-1.35,0.54
		c-0.27,0-0.55-0.06-0.83-0.17c-0.28-0.11-0.5-0.28-0.65-0.5l-16.13-21.46v20.2c0,0.54-0.18,1-0.54,1.37
		c-0.36,0.37-0.82,0.55-1.39,0.55C332.33,266.13,331.88,265.95,331.52,265.6z"/>
	<path class="st7" d="M364.34,264.87c-1.96-1.08-3.31-2.5-4.05-4.25c-0.12-0.3-0.18-0.54-0.18-0.74c0-0.37,0.13-0.7,0.41-0.98
		c0.27-0.28,0.64-0.47,1.11-0.57c0.07-0.02,0.2-0.04,0.37-0.04c0.39,0,0.77,0.12,1.13,0.35s0.62,0.55,0.8,0.94
		c0.44,0.96,1.32,1.78,2.63,2.44s2.75,1,4.33,1c1.85,0,3.42-0.42,4.7-1.28c1.28-0.85,1.92-2.02,1.92-3.5c0-1.41-0.54-2.61-1.63-3.61
		c-1.09-1-2.74-1.61-4.96-1.83c-3.06-0.3-5.46-1.19-7.21-2.68c-1.75-1.49-2.63-3.36-2.63-5.61c0-1.58,0.45-2.94,1.35-4.09
		c0.9-1.15,2.13-2.02,3.7-2.63s3.32-0.91,5.27-0.91c2.12,0,3.91,0.43,5.37,1.3s2.69,2.1,3.7,3.7c0.3,0.47,0.44,0.91,0.44,1.33
		c0,0.54-0.25,0.99-0.74,1.33c-0.27,0.17-0.59,0.26-0.96,0.26s-0.72-0.09-1.04-0.28c-0.32-0.18-0.57-0.44-0.74-0.76
		c-0.67-1.11-1.5-1.96-2.5-2.54c-1-0.58-2.26-0.87-3.79-0.87c-1.88,0-3.39,0.36-4.55,1.09c-1.16,0.73-1.74,1.78-1.74,3.16
		c0,1.28,0.52,2.36,1.55,3.22c1.04,0.86,2.89,1.43,5.55,1.7c2.96,0.3,5.25,1.19,6.88,2.68c1.63,1.49,2.44,3.46,2.44,5.9
		c0,1.78-0.48,3.3-1.44,4.57c-0.96,1.27-2.24,2.22-3.83,2.85c-1.59,0.63-3.3,0.94-5.13,0.94
		C368.48,266.5,366.3,265.96,364.34,264.87z"/>
</g>
<g>
	<rect x="4" y="210" class="st0" width="380" height="7"/>
</g>
</svg>
